C:\Users\mushiga.seigo\workspace\SpringKenshu\src\main\java\jp\co\kenshu\form\CheckForm.java
C:\Users\mushiga.seigo\workspace\SpringKenshu\src\main\java\jp\co\kenshu\form\SelectForm.java
C:\Users\mushiga.seigo\workspace\SpringKenshu\src\main\java\jp\co\kenshu\controller\ValidationSampleController.java
C:\Users\mushiga.seigo\workspace\SpringKenshu\src\main\java\jp\co\kenshu\mapper\TestMapper.java
C:\Users\mushiga.seigo\workspace\SpringKenshu\src\main\java\jp\co\kenshu\CheckSampleController.java
C:\Users\mushiga.seigo\workspace\SpringKenshu\src\main\java\jp\co\kenshu\entity\Test.java
C:\Users\mushiga.seigo\workspace\SpringKenshu\src\main\java\jp\co\kenshu\SelectSampleController.java
C:\Users\mushiga.seigo\workspace\SpringKenshu\src\main\java\jp\co\kenshu\form\TestForm.java
C:\Users\mushiga.seigo\workspace\SpringKenshu\src\main\java\jp\co\kenshu\service\TestService.java
C:\Users\mushiga.seigo\workspace\SpringKenshu\src\main\java\jp\co\kenshu\dto\test\TestDto.java
C:\Users\mushiga.seigo\workspace\SpringKenshu\src\main\java\jp\co\kenshu\controller\TestController.java
C:\Users\mushiga.seigo\workspace\SpringKenshu\src\main\java\jp\co\kenshu\form\employee\EmployeeListForm.java
C:\Users\mushiga.seigo\workspace\SpringKenshu\src\main\java\jp\co\kenshu\RadioSampleController.java
C:\Users\mushiga.seigo\workspace\SpringKenshu\src\main\java\jp\co\kenshu\validator\annotation\Memo.java
C:\Users\mushiga.seigo\workspace\SpringKenshu\src\main\java\jp\co\kenshu\dto\employee\EmployeeDto.java
C:\Users\mushiga.seigo\workspace\SpringKenshu\src\main\java\jp\co\kenshu\form\RadioForm.java
C:\Users\mushiga.seigo\workspace\SpringKenshu\src\main\java\jp\co\kenshu\validator\MemoValidator.java
C:\Users\mushiga.seigo\workspace\SpringKenshu\src\main\java\jp\co\kenshu\controller\api\RestfulController.java
C:\Users\mushiga.seigo\workspace\SpringKenshu\src\main\java\jp\co\kenshu\TestController1.java
