<?xml version="1.0" encoding="UTF-8"?>
<session version="1.0">
<refactoring comment="リソース &apos;demo&apos; を削除" deleteContents="false" description="リソース &apos;demo&apos; を削除" element1="/demo" flags="7" id="org.eclipse.ltk.core.refactoring.delete.resources" resources="1" stamp="1644374468999"/>
</session>