127.0.0.1 - - [24/Jan/2022:09:36:21 +0900] "GET / HTTP/1.1" 404 1065
0:0:0:0:0:0:0:1 - - [24/Jan/2022:09:36:21 +0900] "GET /Chapter4/path HTTP/1.1" 200 100
127.0.0.1 - - [24/Jan/2022:09:40:34 +0900] "GET / HTTP/1.1" 404 1065
0:0:0:0:0:0:0:1 - - [24/Jan/2022:09:40:35 +0900] "GET /Chapter4/echo HTTP/1.1" 200 442
0:0:0:0:0:0:0:1 - - [24/Jan/2022:09:40:39 +0900] "GET /Chapter4/echo?m=a HTTP/1.1" 200 489
0:0:0:0:0:0:0:1 - - [24/Jan/2022:09:40:45 +0900] "GET /Chapter4/echo?m=a HTTP/1.1" 200 489
0:0:0:0:0:0:0:1 - - [24/Jan/2022:09:40:49 +0900] "GET /Chapter4/echo?m=i HTTP/1.1" 200 489
0:0:0:0:0:0:0:1 - - [24/Jan/2022:09:42:26 +0900] "GET /Chapter4/echo HTTP/1.1" 200 442
0:0:0:0:0:0:0:1 - - [24/Jan/2022:09:42:31 +0900] "GET /Chapter4/echo?m=Hello HTTP/1.1" 200 493
127.0.0.1 - - [24/Jan/2022:09:44:11 +0900] "GET / HTTP/1.1" 404 1065
0:0:0:0:0:0:0:1 - - [24/Jan/2022:09:44:11 +0900] "GET /Chapter4/WEB-INF/classes/chapter4/URLEncodeDecode.java HTTP/1.1" 404 1034
127.0.0.1 - - [24/Jan/2022:09:54:18 +0900] "GET / HTTP/1.1" 404 1065
0:0:0:0:0:0:0:1 - - [24/Jan/2022:09:54:18 +0900] "GET /Chapter4/echo HTTP/1.1" 200 442
0:0:0:0:0:0:0:1 - - [24/Jan/2022:09:54:25 +0900] "GET /Chapter4/echo?m=%E3%81%93%E3%82%93%E3%81%AB%E3%81%A1%E3%81%AF HTTP/1.1" 200 518
127.0.0.1 - - [24/Jan/2022:09:57:00 +0900] "GET / HTTP/1.1" 404 1065
0:0:0:0:0:0:0:1 - - [24/Jan/2022:09:57:00 +0900] "GET /Chapter4/echo HTTP/1.1" 200 442
0:0:0:0:0:0:0:1 - - [24/Jan/2022:09:57:05 +0900] "GET /Chapter4/echo?m=%E3%81%93%E3%82%93%E3%81%AB%E3%81%A1%E3%81%AF HTTP/1.1" 200 518
127.0.0.1 - - [24/Jan/2022:10:02:03 +0900] "GET / HTTP/1.1" 404 1065
0:0:0:0:0:0:0:1 - - [24/Jan/2022:10:02:04 +0900] "GET /Chapter4/echo2 HTTP/1.1" 200 444
0:0:0:0:0:0:0:1 - - [24/Jan/2022:10:02:08 +0900] "GET /Chapter4/echo2?m=Hello HTTP/1.1" 200 495
0:0:0:0:0:0:0:1 - - [24/Jan/2022:10:02:14 +0900] "GET /Chapter4/echo2?m=%E3%81%93%E3%82%93%E3%81%AB%E3%81%A1%E3%81%AF HTTP/1.1" 200 505
127.0.0.1 - - [24/Jan/2022:10:05:32 +0900] "GET / HTTP/1.1" 404 1065
0:0:0:0:0:0:0:1 - - [24/Jan/2022:10:05:34 +0900] "GET /Chapter4/echo2 HTTP/1.1" 200 458
0:0:0:0:0:0:0:1 - - [24/Jan/2022:10:05:39 +0900] "POST /Chapter4/echo3 HTTP/1.1" 404 1079
127.0.0.1 - - [24/Jan/2022:10:06:41 +0900] "GET / HTTP/1.1" 404 1065
0:0:0:0:0:0:0:1 - - [24/Jan/2022:10:06:41 +0900] "GET /Chapter4/echo3 HTTP/1.1" 405 1146
127.0.0.1 - - [24/Jan/2022:10:09:45 +0900] "GET / HTTP/1.1" 404 1065
0:0:0:0:0:0:0:1 - - [24/Jan/2022:10:09:46 +0900] "GET /Chapter4/echo3 HTTP/1.1" 405 1146
0:0:0:0:0:0:0:1 - - [24/Jan/2022:10:11:13 +0900] "GET /Chapter4/echo3.jsp HTTP/1.1" 200 475
0:0:0:0:0:0:0:1 - - [24/Jan/2022:10:11:15 +0900] "POST /Chapter4/echo3 HTTP/1.1" 200 524
0:0:0:0:0:0:0:1 - - [24/Jan/2022:10:11:25 +0900] "POST /Chapter4/echo3 HTTP/1.1" 200 538
127.0.0.1 - - [24/Jan/2022:10:11:57 +0900] "GET / HTTP/1.1" 404 1065
0:0:0:0:0:0:0:1 - - [24/Jan/2022:10:11:58 +0900] "GET /Chapter4/echo3 HTTP/1.1" 405 1146
127.0.0.1 - - [24/Jan/2022:10:22:19 +0900] "GET / HTTP/1.1" 404 1065
0:0:0:0:0:0:0:1 - - [24/Jan/2022:10:22:19 +0900] "GET /Chapter4/kazuate HTTP/1.1" 405 1146
0:0:0:0:0:0:0:1 - - [24/Jan/2022:10:22:26 +0900] "GET /Chapter4/kazuate.jsp HTTP/1.1" 200 645
0:0:0:0:0:0:0:1 - - [24/Jan/2022:10:22:34 +0900] "POST /Chapter4/kazuate HTTP/1.1" 200 696
0:0:0:0:0:0:0:1 - - [24/Jan/2022:10:22:41 +0900] "POST /Chapter4/kazuate HTTP/1.1" 200 696
0:0:0:0:0:0:0:1 - - [24/Jan/2022:10:22:47 +0900] "POST /Chapter4/kazuate HTTP/1.1" 200 696
0:0:0:0:0:0:0:1 - - [24/Jan/2022:10:22:56 +0900] "POST /Chapter4/kazuate HTTP/1.1" 200 662
127.0.0.1 - - [24/Jan/2022:11:01:55 +0900] "GET / HTTP/1.1" 404 1065
0:0:0:0:0:0:0:1 - - [24/Jan/2022:11:01:56 +0900] "GET /Chapter4/kazuate.jsp HTTP/1.1" 200 724
0:0:0:0:0:0:0:1 - - [24/Jan/2022:11:02:00 +0900] "POST /Chapter4/kazuateJavaEEValidation HTTP/1.1" 500 2191
127.0.0.1 - - [24/Jan/2022:11:09:46 +0900] "GET / HTTP/1.1" 404 1065
0:0:0:0:0:0:0:1 - - [24/Jan/2022:11:09:46 +0900] "GET /Chapter4/kazuate.jsp HTTP/1.1" 200 724
0:0:0:0:0:0:0:1 - - [24/Jan/2022:11:09:48 +0900] "POST /Chapter4/kazuateJavaEEValidation HTTP/1.1" 500 1983
0:0:0:0:0:0:0:1 - - [24/Jan/2022:11:13:03 +0900] "GET /Chapter4/kazuate.jsp HTTP/1.1" 200 689
0:0:0:0:0:0:0:1 - - [24/Jan/2022:11:13:06 +0900] "POST /Chapter4/kazuateJavaEEValidation HTTP/1.1" 500 1983
127.0.0.1 - - [24/Jan/2022:11:28:27 +0900] "GET / HTTP/1.1" 404 1065
0:0:0:0:0:0:0:1 - - [24/Jan/2022:11:28:29 +0900] "GET /Chapter4/kazuate.jsp HTTP/1.1" 200 692
0:0:0:0:0:0:0:1 - - [24/Jan/2022:11:28:35 +0900] "POST /Chapter4/kazuateJavaEEValidation HTTP/1.1" 500 1983
127.0.0.1 - - [24/Jan/2022:11:48:31 +0900] "GET / HTTP/1.1" 404 1065
0:0:0:0:0:0:0:1 - - [24/Jan/2022:11:48:31 +0900] "GET /Chapter4/kazuate.jsp HTTP/1.1" 200 692
0:0:0:0:0:0:0:1 - - [24/Jan/2022:11:48:34 +0900] "POST /Chapter4/kazuateJavaEEValidation HTTP/1.1" 404 1101
0:0:0:0:0:0:0:1 - - [24/Jan/2022:11:49:19 +0900] "GET /Chapter4/kazuate HTTP/1.1" 405 1146
0:0:0:0:0:0:0:1 - - [24/Jan/2022:11:49:25 +0900] "GET /Chapter4/kazuate.jsp HTTP/1.1" 200 692
0:0:0:0:0:0:0:1 - - [24/Jan/2022:11:49:27 +0900] "POST /Chapter4/kazuateJavaEEValidation HTTP/1.1" 404 1101
0:0:0:0:0:0:0:1 - - [24/Jan/2022:11:53:43 +0900] "GET /Chapter4/kazuateJavaEEValidation.jsp HTTP/1.1" 200 691
0:0:0:0:0:0:0:1 - - [24/Jan/2022:11:53:46 +0900] "POST /Chapter4/kazuateJavaEEValidation HTTP/1.1" 200 744
0:0:0:0:0:0:0:1 - - [24/Jan/2022:11:53:50 +0900] "POST /Chapter4/kazuateJavaEEValidation HTTP/1.1" 200 744
0:0:0:0:0:0:0:1 - - [24/Jan/2022:11:53:52 +0900] "POST /Chapter4/kazuateJavaEEValidation HTTP/1.1" 200 744
0:0:0:0:0:0:0:1 - - [24/Jan/2022:11:54:01 +0900] "POST /Chapter4/kazuateJavaEEValidation HTTP/1.1" 200 744
0:0:0:0:0:0:0:1 - - [24/Jan/2022:11:54:04 +0900] "POST /Chapter4/kazuateJavaEEValidation HTTP/1.1" 200 745
0:0:0:0:0:0:0:1 - - [24/Jan/2022:11:54:07 +0900] "POST /Chapter4/kazuateJavaEEValidation HTTP/1.1" 200 745
0:0:0:0:0:0:0:1 - - [24/Jan/2022:11:54:11 +0900] "POST /Chapter4/kazuateJavaEEValidation HTTP/1.1" 200 745
0:0:0:0:0:0:0:1 - - [24/Jan/2022:11:54:14 +0900] "POST /Chapter4/kazuateJavaEEValidation HTTP/1.1" 200 745
0:0:0:0:0:0:0:1 - - [24/Jan/2022:11:54:16 +0900] "POST /Chapter4/kazuateJavaEEValidation HTTP/1.1" 200 745
0:0:0:0:0:0:0:1 - - [24/Jan/2022:11:54:19 +0900] "POST /Chapter4/kazuateJavaEEValidation HTTP/1.1" 200 745
0:0:0:0:0:0:0:1 - - [24/Jan/2022:11:54:23 +0900] "POST /Chapter4/kazuateJavaEEValidation HTTP/1.1" 200 745
0:0:0:0:0:0:0:1 - - [24/Jan/2022:11:54:26 +0900] "POST /Chapter4/kazuateJavaEEValidation HTTP/1.1" 200 745
0:0:0:0:0:0:0:1 - - [24/Jan/2022:11:54:31 +0900] "POST /Chapter4/kazuateJavaEEValidation HTTP/1.1" 200 745
0:0:0:0:0:0:0:1 - - [24/Jan/2022:11:54:33 +0900] "POST /Chapter4/kazuateJavaEEValidation HTTP/1.1" 200 745
0:0:0:0:0:0:0:1 - - [24/Jan/2022:11:54:36 +0900] "POST /Chapter4/kazuateJavaEEValidation HTTP/1.1" 200 710
127.0.0.1 - - [24/Jan/2022:11:58:11 +0900] "GET / HTTP/1.1" 404 1065
0:0:0:0:0:0:0:1 - - [24/Jan/2022:11:58:12 +0900] "GET /Chapter4/WEB-INF/classes/chapter4/EncodingFilter.java HTTP/1.1" 404 1034
127.0.0.1 - - [24/Jan/2022:12:02:25 +0900] "GET / HTTP/1.1" 404 1065
0:0:0:0:0:0:0:1 - - [24/Jan/2022:12:02:26 +0900] "GET /Chapter4/shoppingCart.jsp HTTP/1.1" 200 618
0:0:0:0:0:0:0:1 - - [24/Jan/2022:12:02:31 +0900] "POST /Chapter4/shoppingCart HTTP/1.1" 200 678
0:0:0:0:0:0:0:1 - - [24/Jan/2022:12:02:33 +0900] "POST /Chapter4/shoppingCart HTTP/1.1" 200 678
0:0:0:0:0:0:0:1 - - [24/Jan/2022:12:02:36 +0900] "POST /Chapter4/shoppingCart HTTP/1.1" 200 692
0:0:0:0:0:0:0:1 - - [24/Jan/2022:12:02:38 +0900] "POST /Chapter4/shoppingCart HTTP/1.1" 200 706
0:0:0:0:0:0:0:1 - - [24/Jan/2022:12:02:40 +0900] "GET /Chapter4/shoppingCart?reset HTTP/1.1" 200 618
127.0.0.1 - - [24/Jan/2022:13:03:55 +0900] "GET / HTTP/1.1" 404 1065
0:0:0:0:0:0:0:1 - - [24/Jan/2022:13:03:56 +0900] "GET /Chapter4/echo4 HTTP/1.1" 302 -
0:0:0:0:0:0:0:1 - - [24/Jan/2022:13:03:56 +0900] "GET /Chapter4/echo4.jsp HTTP/1.1" 200 458
0:0:0:0:0:0:0:1 - - [24/Jan/2022:13:03:59 +0900] "POST /Chapter4/echo4 HTTP/1.1" 302 -
0:0:0:0:0:0:0:1 - - [24/Jan/2022:13:03:59 +0900] "GET /Chapter4/echo4.jsp HTTP/1.1" 200 505
127.0.0.1 - - [24/Jan/2022:13:05:08 +0900] "GET / HTTP/1.1" 404 1065
0:0:0:0:0:0:0:1 - - [24/Jan/2022:13:05:08 +0900] "GET /Chapter4/content_type HTTP/1.1" 500 1565
127.0.0.1 - - [24/Jan/2022:13:09:37 +0900] "GET / HTTP/1.1" 404 1065
0:0:0:0:0:0:0:1 - - [24/Jan/2022:13:09:37 +0900] "GET /Chapter4/content_type HTTP/1.1" 500 1565
0:0:0:0:0:0:0:1 - - [24/Jan/2022:13:10:32 +0900] "GET /Chapter4/content_type HTTP/1.1" 500 1565
0:0:0:0:0:0:0:1 - - [24/Jan/2022:13:12:15 +0900] "GET /Chapter4/Content-disposition.html HTTP/1.1" 200 421
0:0:0:0:0:0:0:1 - - [24/Jan/2022:13:12:22 +0900] "GET /Chapter4/content_type HTTP/1.1" 500 1565
0:0:0:0:0:0:0:1 - - [24/Jan/2022:13:13:02 +0900] "GET /Chapter4/content_type HTTP/1.1" 500 1565
0:0:0:0:0:0:0:1 - - [24/Jan/2022:13:13:43 +0900] "GET /Chapter4/type.html HTTP/1.1" 404 1083
0:0:0:0:0:0:0:1 - - [24/Jan/2022:13:13:53 +0900] "GET /Chapter4/type.html HTTP/1.1" 404 1083
0:0:0:0:0:0:0:1 - - [24/Jan/2022:13:14:24 +0900] "GET /Chapter4/Content-Type.html HTTP/1.1" 200 421
0:0:0:0:0:0:0:1 - - [24/Jan/2022:13:14:26 +0900] "GET /Chapter4/content_type?type=stream HTTP/1.1" 404 1088
0:0:0:0:0:0:0:1 - - [24/Jan/2022:13:14:29 +0900] "GET /Chapter4/content_type?type=pdf HTTP/1.1" 404 1088
127.0.0.1 - - [24/Jan/2022:13:59:57 +0900] "GET / HTTP/1.1" 404 1065
0:0:0:0:0:0:0:1 - - [24/Jan/2022:13:59:58 +0900] "GET /SimpleTwitter/ HTTP/1.1" 200 564
127.0.0.1 - - [24/Jan/2022:17:02:53 +0900] "GET / HTTP/1.1" 404 1065
0:0:0:0:0:0:0:1 - - [24/Jan/2022:17:02:54 +0900] "GET /SimpleTwitter/ HTTP/1.1" 500 3776
127.0.0.1 - - [24/Jan/2022:17:04:33 +0900] "GET / HTTP/1.1" 404 1065
0:0:0:0:0:0:0:1 - - [24/Jan/2022:17:04:35 +0900] "GET /SimpleTwitter/ HTTP/1.1" 200 758
0:0:0:0:0:0:0:1 - - [24/Jan/2022:17:04:35 +0900] "GET /SimpleTwitter/css/style.css HTTP/1.1" 200 1805
0:0:0:0:0:0:0:1 - - [24/Jan/2022:17:04:45 +0900] "GET /SimpleTwitter/signup HTTP/1.1" 200 1410
0:0:0:0:0:0:0:1 - - [24/Jan/2022:17:05:34 +0900] "POST /SimpleTwitter/signup HTTP/1.1" 302 -
0:0:0:0:0:0:0:1 - - [24/Jan/2022:17:05:34 +0900] "GET /SimpleTwitter/ HTTP/1.1" 200 758
0:0:0:0:0:0:0:1 - - [24/Jan/2022:17:05:39 +0900] "GET /SimpleTwitter/login HTTP/1.1" 200 1001
0:0:0:0:0:0:0:1 - - [24/Jan/2022:17:06:00 +0900] "POST /SimpleTwitter/login HTTP/1.1" 200 1256
0:0:0:0:0:0:0:1 - - [24/Jan/2022:17:06:02 +0900] "POST /SimpleTwitter/login HTTP/1.1" 200 1256
0:0:0:0:0:0:0:1 - - [24/Jan/2022:17:06:24 +0900] "POST /SimpleTwitter/login HTTP/1.1" 200 1256
0:0:0:0:0:0:0:1 - - [24/Jan/2022:17:06:24 +0900] "GET /SimpleTwitter/css/style.css HTTP/1.1" 304 -
0:0:0:0:0:0:0:1 - - [24/Jan/2022:17:06:33 +0900] "POST /SimpleTwitter/login HTTP/1.1" 302 -
0:0:0:0:0:0:0:1 - - [24/Jan/2022:17:06:33 +0900] "GET /SimpleTwitter/ HTTP/1.1" 200 1354
0:0:0:0:0:0:0:1 - - [24/Jan/2022:17:06:53 +0900] "POST /SimpleTwitter/message HTTP/1.1" 302 -
0:0:0:0:0:0:0:1 - - [24/Jan/2022:17:06:53 +0900] "GET /SimpleTwitter/ HTTP/1.1" 200 1719
0:0:0:0:0:0:0:1 - - [24/Jan/2022:17:06:56 +0900] "GET /SimpleTwitter/setting HTTP/1.1" 200 1586
0:0:0:0:0:0:0:1 - - [24/Jan/2022:17:07:02 +0900] "POST /SimpleTwitter/setting HTTP/1.1" 200 1850
0:0:0:0:0:0:0:1 - - [24/Jan/2022:17:07:15 +0900] "POST /SimpleTwitter/setting HTTP/1.1" 302 -
0:0:0:0:0:0:0:1 - - [24/Jan/2022:17:07:15 +0900] "GET /SimpleTwitter/ HTTP/1.1" 200 1717
0:0:0:0:0:0:0:1 - - [24/Jan/2022:17:07:19 +0900] "GET /SimpleTwitter/ HTTP/1.1" 200 1717
0:0:0:0:0:0:0:1 - - [24/Jan/2022:17:07:22 +0900] "GET /SimpleTwitter/ HTTP/1.1" 200 1717
0:0:0:0:0:0:0:1 - - [24/Jan/2022:17:07:23 +0900] "GET /SimpleTwitter/setting HTTP/1.1" 200 1584
0:0:0:0:0:0:0:1 - - [24/Jan/2022:17:07:25 +0900] "GET /SimpleTwitter/ HTTP/1.1" 200 1717
0:0:0:0:0:0:0:1 - - [24/Jan/2022:17:07:27 +0900] "GET /SimpleTwitter/logout HTTP/1.1" 302 -
0:0:0:0:0:0:0:1 - - [24/Jan/2022:17:07:27 +0900] "GET /SimpleTwitter/ HTTP/1.1" 200 1123
0:0:0:0:0:0:0:1 - - [24/Jan/2022:17:08:19 +0900] "GET /SimpleTwitter/login HTTP/1.1" 200 1001
0:0:0:0:0:0:0:1 - - [24/Jan/2022:17:08:19 +0900] "GET /SimpleTwitter/css/style.css HTTP/1.1" 304 -
0:0:0:0:0:0:0:1 - - [24/Jan/2022:17:08:29 +0900] "POST /SimpleTwitter/login HTTP/1.1" 302 -
0:0:0:0:0:0:0:1 - - [24/Jan/2022:17:08:29 +0900] "GET /SimpleTwitter/ HTTP/1.1" 200 1717
0:0:0:0:0:0:0:1 - - [24/Jan/2022:17:08:45 +0900] "POST /SimpleTwitter/message HTTP/1.1" 302 -
0:0:0:0:0:0:0:1 - - [24/Jan/2022:17:08:45 +0900] "GET /SimpleTwitter/ HTTP/1.1" 200 2103
0:0:0:0:0:0:0:1 - - [24/Jan/2022:17:08:48 +0900] "GET /SimpleTwitter/ HTTP/1.1" 200 2103
0:0:0:0:0:0:0:1 - - [24/Jan/2022:17:08:50 +0900] "GET /SimpleTwitter/logout HTTP/1.1" 302 -
0:0:0:0:0:0:0:1 - - [24/Jan/2022:17:08:50 +0900] "GET /SimpleTwitter/ HTTP/1.1" 200 1509
0:0:0:0:0:0:0:1 - - [24/Jan/2022:17:09:38 +0900] "GET /SimpleTwitter/login HTTP/1.1" 200 1001
0:0:0:0:0:0:0:1 - - [24/Jan/2022:17:09:53 +0900] "POST /SimpleTwitter/login HTTP/1.1" 302 -
0:0:0:0:0:0:0:1 - - [24/Jan/2022:17:09:53 +0900] "GET /SimpleTwitter/ HTTP/1.1" 200 2099
0:0:0:0:0:0:0:1 - - [24/Jan/2022:17:09:59 +0900] "GET /SimpleTwitter/ HTTP/1.1" 200 2099
0:0:0:0:0:0:0:1 - - [24/Jan/2022:17:10:00 +0900] "GET /SimpleTwitter/logout HTTP/1.1" 302 -
0:0:0:0:0:0:0:1 - - [24/Jan/2022:17:10:00 +0900] "GET /SimpleTwitter/ HTTP/1.1" 200 1505
0:0:0:0:0:0:0:1 - - [24/Jan/2022:17:13:14 +0900] "GET /SimpleTwitter/ HTTP/1.1" 200 1505
0:0:0:0:0:0:0:1 - - [24/Jan/2022:17:13:14 +0900] "GET /SimpleTwitter/css/style.css HTTP/1.1" 200 1808
0:0:0:0:0:0:0:1 - - [24/Jan/2022:17:13:20 +0900] "GET /SimpleTwitter/login HTTP/1.1" 200 1001
0:0:0:0:0:0:0:1 - - [24/Jan/2022:17:13:20 +0900] "GET /SimpleTwitter/css/style.css HTTP/1.1" 304 -
0:0:0:0:0:0:0:1 - - [24/Jan/2022:17:14:03 +0900] "POST /SimpleTwitter/login HTTP/1.1" 200 1256
0:0:0:0:0:0:0:1 - - [24/Jan/2022:17:14:03 +0900] "GET /SimpleTwitter/css/style.css HTTP/1.1" 304 -
0:0:0:0:0:0:0:1 - - [24/Jan/2022:17:14:18 +0900] "POST /SimpleTwitter/login HTTP/1.1" 302 -
0:0:0:0:0:0:0:1 - - [24/Jan/2022:17:14:18 +0900] "GET /SimpleTwitter/ HTTP/1.1" 200 2099
0:0:0:0:0:0:0:1 - - [24/Jan/2022:17:14:18 +0900] "GET /SimpleTwitter/css/style.css HTTP/1.1" 304 -
0:0:0:0:0:0:0:1 - - [24/Jan/2022:17:14:20 +0900] "GET /SimpleTwitter/setting HTTP/1.1" 200 1584
0:0:0:0:0:0:0:1 - - [24/Jan/2022:17:14:40 +0900] "POST /SimpleTwitter/setting HTTP/1.1" 302 -
0:0:0:0:0:0:0:1 - - [24/Jan/2022:17:14:40 +0900] "GET /SimpleTwitter/ HTTP/1.1" 200 2099
0:0:0:0:0:0:0:1 - - [24/Jan/2022:17:14:40 +0900] "GET /SimpleTwitter/css/style.css HTTP/1.1" 304 -
0:0:0:0:0:0:0:1 - - [24/Jan/2022:17:14:42 +0900] "GET /SimpleTwitter/setting HTTP/1.1" 200 1585
0:0:0:0:0:0:0:1 - - [24/Jan/2022:17:14:44 +0900] "GET /SimpleTwitter/ HTTP/1.1" 200 2099
0:0:0:0:0:0:0:1 - - [24/Jan/2022:17:14:52 +0900] "GET /SimpleTwitter/setting HTTP/1.1" 200 1585
0:0:0:0:0:0:0:1 - - [24/Jan/2022:17:14:54 +0900] "GET /SimpleTwitter/ HTTP/1.1" 200 2099
0:0:0:0:0:0:0:1 - - [24/Jan/2022:17:14:54 +0900] "GET /SimpleTwitter/css/style.css HTTP/1.1" 304 -
0:0:0:0:0:0:0:1 - - [24/Jan/2022:17:15:04 +0900] "GET /SimpleTwitter/logout HTTP/1.1" 302 -
0:0:0:0:0:0:0:1 - - [24/Jan/2022:17:15:04 +0900] "GET /SimpleTwitter/ HTTP/1.1" 200 1505
