127.0.0.1 - - [04/Feb/2022:13:58:33 +0900] "GET / HTTP/1.1" 404 1065
0:0:0:0:0:0:0:1 - - [04/Feb/2022:13:58:35 +0900] "GET /SimpleTwitter/top.jsp HTTP/1.1" 200 1084
0:0:0:0:0:0:0:1 - - [04/Feb/2022:13:58:35 +0900] "GET /SimpleTwitter/css/style.css HTTP/1.1" 200 1808
0:0:0:0:0:0:0:1 - - [04/Feb/2022:13:58:35 +0900] "GET /SimpleTwitter/js/jQuery.min.js HTTP/1.1" 404 1095
127.0.0.1 - - [04/Feb/2022:14:03:38 +0900] "GET / HTTP/1.1" 404 1065
0:0:0:0:0:0:0:1 - - [04/Feb/2022:14:03:39 +0900] "GET /SimpleTwitter/practiceFile.jsp HTTP/1.1" 200 317
0:0:0:0:0:0:0:1 - - [04/Feb/2022:14:03:39 +0900] "GET /SimpleTwitter/js/jQuery.min.js HTTP/1.1" 404 1095
0:0:0:0:0:0:0:1 - - [04/Feb/2022:14:07:47 +0900] "GET /SimpleTwitter/practiceFile.jsp HTTP/1.1" 200 501
0:0:0:0:0:0:0:1 - - [04/Feb/2022:14:07:47 +0900] "GET /SimpleTwitter/css/style.css HTTP/1.1" 304 -
0:0:0:0:0:0:0:1 - - [04/Feb/2022:14:07:47 +0900] "GET /SimpleTwitter/js/jQuery.min.js HTTP/1.1" 404 1095
0:0:0:0:0:0:0:1 - - [04/Feb/2022:14:08:41 +0900] "GET /SimpleTwitter/practiceFile.jsp HTTP/1.1" 200 501
0:0:0:0:0:0:0:1 - - [04/Feb/2022:14:08:41 +0900] "GET /SimpleTwitter/css/style.css HTTP/1.1" 304 -
0:0:0:0:0:0:0:1 - - [04/Feb/2022:14:08:41 +0900] "GET /SimpleTwitter/js/jQuery.min.js HTTP/1.1" 404 1095
0:0:0:0:0:0:0:1 - - [04/Feb/2022:14:08:48 +0900] "GET /SimpleTwitter/practiceFile.jsp HTTP/1.1" 200 649
0:0:0:0:0:0:0:1 - - [04/Feb/2022:14:08:48 +0900] "GET /SimpleTwitter/css/style.css HTTP/1.1" 304 -
0:0:0:0:0:0:0:1 - - [04/Feb/2022:14:08:48 +0900] "GET /SimpleTwitter/js/jQuery.min.js HTTP/1.1" 404 1095
0:0:0:0:0:0:0:1 - - [04/Feb/2022:14:09:13 +0900] "GET /SimpleTwitter/practiceFile.jsp HTTP/1.1" 200 649
0:0:0:0:0:0:0:1 - - [04/Feb/2022:14:09:13 +0900] "GET /SimpleTwitter/css/style.css HTTP/1.1" 304 -
0:0:0:0:0:0:0:1 - - [04/Feb/2022:14:09:13 +0900] "GET /SimpleTwitter/js/jQuery.min.js HTTP/1.1" 404 1095
0:0:0:0:0:0:0:1 - - [04/Feb/2022:14:09:21 +0900] "GET /SimpleTwitter/practiceFile.jsp HTTP/1.1" 200 649
0:0:0:0:0:0:0:1 - - [04/Feb/2022:14:09:21 +0900] "GET /SimpleTwitter/js/jQuery.min.js HTTP/1.1" 404 1095
0:0:0:0:0:0:0:1 - - [04/Feb/2022:14:09:21 +0900] "GET /favicon.ico HTTP/1.1" 404 1076
0:0:0:0:0:0:0:1 - - [04/Feb/2022:14:11:47 +0900] "GET /SimpleTwitter/practiceFile.jsp HTTP/1.1" 200 649
0:0:0:0:0:0:0:1 - - [04/Feb/2022:14:11:47 +0900] "GET /SimpleTwitter/css/style.css HTTP/1.1" 304 -
0:0:0:0:0:0:0:1 - - [04/Feb/2022:14:11:47 +0900] "GET /SimpleTwitter/js/jQuery.min.js HTTP/1.1" 404 1095
0:0:0:0:0:0:0:1 - - [04/Feb/2022:14:11:49 +0900] "GET /SimpleTwitter/practiceFile.jsp HTTP/1.1" 200 649
0:0:0:0:0:0:0:1 - - [04/Feb/2022:14:11:49 +0900] "GET /SimpleTwitter/css/style.css HTTP/1.1" 304 -
0:0:0:0:0:0:0:1 - - [04/Feb/2022:14:11:49 +0900] "GET /SimpleTwitter/js/jQuery.min.js HTTP/1.1" 404 1095
0:0:0:0:0:0:0:1 - - [04/Feb/2022:14:14:17 +0900] "GET /SimpleTwitter/practiceFile.jsp HTTP/1.1" 200 744
0:0:0:0:0:0:0:1 - - [04/Feb/2022:14:14:17 +0900] "GET /SimpleTwitter/css/style.css HTTP/1.1" 304 -
0:0:0:0:0:0:0:1 - - [04/Feb/2022:14:14:17 +0900] "GET /SimpleTwitter/js/jQuery.min.js HTTP/1.1" 404 1095
0:0:0:0:0:0:0:1 - - [04/Feb/2022:14:14:25 +0900] "GET /SimpleTwitter/js/jQuery.min.js HTTP/1.1" 404 1095
0:0:0:0:0:0:0:1 - - [04/Feb/2022:14:15:06 +0900] "GET /SimpleTwitter/practiceFile.jsp HTTP/1.1" 200 744
0:0:0:0:0:0:0:1 - - [04/Feb/2022:14:15:06 +0900] "GET /SimpleTwitter/css/style.css HTTP/1.1" 304 -
0:0:0:0:0:0:0:1 - - [04/Feb/2022:14:15:06 +0900] "GET /SimpleTwitter/js/jQuery.min.js HTTP/1.1" 404 1095
0:0:0:0:0:0:0:1 - - [04/Feb/2022:14:15:11 +0900] "GET /SimpleTwitter/js/jQuery.min.js HTTP/1.1" 404 1095
0:0:0:0:0:0:0:1 - - [04/Feb/2022:14:19:21 +0900] "GET /SimpleTwitter/practiceFile.jsp HTTP/1.1" 200 750
0:0:0:0:0:0:0:1 - - [04/Feb/2022:14:19:21 +0900] "GET /SimpleTwitter/css/style.css HTTP/1.1" 304 -
0:0:0:0:0:0:0:1 - - [04/Feb/2022:14:19:21 +0900] "GET /SimpleTwitter/js/jquery-3.6.0.min.js HTTP/1.1" 404 1101
127.0.0.1 - - [04/Feb/2022:14:19:51 +0900] "GET / HTTP/1.1" 404 1065
0:0:0:0:0:0:0:1 - - [04/Feb/2022:14:19:54 +0900] "GET /SimpleTwitter/practiceFile.jsp HTTP/1.1" 200 750
0:0:0:0:0:0:0:1 - - [04/Feb/2022:14:19:54 +0900] "GET /SimpleTwitter/css/style.css HTTP/1.1" 304 -
0:0:0:0:0:0:0:1 - - [04/Feb/2022:14:19:54 +0900] "GET /SimpleTwitter/js/jquery-3.6.0.min.js HTTP/1.1" 404 1101
0:0:0:0:0:0:0:1 - - [04/Feb/2022:14:19:58 +0900] "GET /SimpleTwitter/js/jquery-3.6.0.min.js HTTP/1.1" 404 1101
0:0:0:0:0:0:0:1 - - [04/Feb/2022:14:21:16 +0900] "GET /SimpleTwitter/practiceFile.jsp HTTP/1.1" 200 750
0:0:0:0:0:0:0:1 - - [04/Feb/2022:14:21:16 +0900] "GET /SimpleTwitter/css/style.css HTTP/1.1" 304 -
0:0:0:0:0:0:0:1 - - [04/Feb/2022:14:21:16 +0900] "GET /SimpleTwitter/js/jquery-3.6.0.min.js HTTP/1.1" 200 91282
0:0:0:0:0:0:0:1 - - [04/Feb/2022:14:22:24 +0900] "GET /SimpleTwitter/practiceFile.jsp HTTP/1.1" 200 750
0:0:0:0:0:0:0:1 - - [04/Feb/2022:14:22:24 +0900] "GET /SimpleTwitter/js/jquery-3.6.0.min.js HTTP/1.1" 200 90660
0:0:0:0:0:0:0:1 - - [04/Feb/2022:14:23:18 +0900] "GET /SimpleTwitter/practiceFile.jsp HTTP/1.1" 200 750
0:0:0:0:0:0:0:1 - - [04/Feb/2022:14:23:18 +0900] "GET /SimpleTwitter/css/style.css HTTP/1.1" 304 -
0:0:0:0:0:0:0:1 - - [04/Feb/2022:14:23:18 +0900] "GET /SimpleTwitter/js/jquery-3.6.0.min.js HTTP/1.1" 200 90734
0:0:0:0:0:0:0:1 - - [04/Feb/2022:14:24:21 +0900] "GET /SimpleTwitter/practiceFile.jsp HTTP/1.1" 200 750
0:0:0:0:0:0:0:1 - - [04/Feb/2022:14:24:21 +0900] "GET /SimpleTwitter/js/jquery-3.6.0.min.js HTTP/1.1" 200 91009
0:0:0:0:0:0:0:1 - - [04/Feb/2022:14:25:31 +0900] "GET /SimpleTwitter/practiceFile.jsp HTTP/1.1" 200 786
0:0:0:0:0:0:0:1 - - [04/Feb/2022:14:25:31 +0900] "GET /SimpleTwitter/js/jquery-3.6.0.min.js HTTP/1.1" 304 -
0:0:0:0:0:0:0:1 - - [04/Feb/2022:14:37:05 +0900] "GET /SimpleTwitter/practiceFile.jsp HTTP/1.1" 200 872
0:0:0:0:0:0:0:1 - - [04/Feb/2022:14:37:05 +0900] "GET /SimpleTwitter/css/style.css HTTP/1.1" 304 -
0:0:0:0:0:0:0:1 - - [04/Feb/2022:14:37:05 +0900] "GET /SimpleTwitter/js/jquery-3.6.0.min.js HTTP/1.1" 200 91111
0:0:0:0:0:0:0:1 - - [04/Feb/2022:14:38:00 +0900] "GET /SimpleTwitter/practiceFile.jsp HTTP/1.1" 200 872
0:0:0:0:0:0:0:1 - - [04/Feb/2022:14:38:00 +0900] "GET /SimpleTwitter/css/style.css HTTP/1.1" 304 -
0:0:0:0:0:0:0:1 - - [04/Feb/2022:14:38:00 +0900] "GET /SimpleTwitter/js/jquery-3.6.0.min.js HTTP/1.1" 200 91111
127.0.0.1 - - [04/Feb/2022:15:34:39 +0900] "GET / HTTP/1.1" 404 1065
0:0:0:0:0:0:0:1 - - [04/Feb/2022:15:34:41 +0900] "GET /SimpleTwitter/ HTTP/1.1" 200 7961
0:0:0:0:0:0:0:1 - - [04/Feb/2022:15:34:41 +0900] "GET /SimpleTwitter/js/main.js HTTP/1.1" 200 281
0:0:0:0:0:0:0:1 - - [04/Feb/2022:15:34:41 +0900] "GET /SimpleTwitter/js/jquery-3.6.0.min.js HTTP/1.1" 200 89500
0:0:0:0:0:0:0:1 - - [04/Feb/2022:15:35:27 +0900] "GET /SimpleTwitter/login HTTP/1.1" 200 1001
0:0:0:0:0:0:0:1 - - [04/Feb/2022:15:35:37 +0900] "POST /SimpleTwitter/login HTTP/1.1" 302 -
0:0:0:0:0:0:0:1 - - [04/Feb/2022:15:35:37 +0900] "GET /SimpleTwitter/ HTTP/1.1" 200 14998
0:0:0:0:0:0:0:1 - - [04/Feb/2022:15:35:37 +0900] "GET /SimpleTwitter/js/main.js HTTP/1.1" 304 -
0:0:0:0:0:0:0:1 - - [04/Feb/2022:15:35:44 +0900] "POST /SimpleTwitter/message HTTP/1.1" 302 -
0:0:0:0:0:0:0:1 - - [04/Feb/2022:15:35:44 +0900] "GET /SimpleTwitter/ HTTP/1.1" 200 16624
0:0:0:0:0:0:0:1 - - [04/Feb/2022:15:35:46 +0900] "POST /SimpleTwitter/deleteMessage HTTP/1.1" 302 -
0:0:0:0:0:0:0:1 - - [04/Feb/2022:15:35:46 +0900] "GET /SimpleTwitter/ HTTP/1.1" 200 14998
0:0:0:0:0:0:0:1 - - [04/Feb/2022:15:35:46 +0900] "GET /SimpleTwitter/js/main.js HTTP/1.1" 304 -
0:0:0:0:0:0:0:1 - - [04/Feb/2022:15:35:57 +0900] "POST /SimpleTwitter/message HTTP/1.1" 302 -
0:0:0:0:0:0:0:1 - - [04/Feb/2022:15:35:57 +0900] "GET /SimpleTwitter/ HTTP/1.1" 200 16624
0:0:0:0:0:0:0:1 - - [04/Feb/2022:15:36:02 +0900] "POST /SimpleTwitter/deleteMessage HTTP/1.1" 302 -
0:0:0:0:0:0:0:1 - - [04/Feb/2022:15:36:02 +0900] "GET /SimpleTwitter/ HTTP/1.1" 200 14998
0:0:0:0:0:0:0:1 - - [04/Feb/2022:15:36:02 +0900] "GET /SimpleTwitter/js/main.js HTTP/1.1" 304 -
0:0:0:0:0:0:0:1 - - [04/Feb/2022:15:36:05 +0900] "GET /SimpleTwitter/ HTTP/1.1" 200 14998
0:0:0:0:0:0:0:1 - - [04/Feb/2022:15:36:05 +0900] "GET /SimpleTwitter/css/style.css HTTP/1.1" 304 -
0:0:0:0:0:0:0:1 - - [04/Feb/2022:15:36:05 +0900] "GET /SimpleTwitter/js/jquery-3.6.0.min.js HTTP/1.1" 304 -
0:0:0:0:0:0:0:1 - - [04/Feb/2022:15:36:05 +0900] "GET /SimpleTwitter/js/main.js HTTP/1.1" 304 -
0:0:0:0:0:0:0:1 - - [04/Feb/2022:15:36:11 +0900] "POST /SimpleTwitter/message HTTP/1.1" 302 -
0:0:0:0:0:0:0:1 - - [04/Feb/2022:15:36:11 +0900] "GET /SimpleTwitter/ HTTP/1.1" 200 16624
0:0:0:0:0:0:0:1 - - [04/Feb/2022:15:36:14 +0900] "GET /SimpleTwitter/ HTTP/1.1" 200 16624
0:0:0:0:0:0:0:1 - - [04/Feb/2022:15:36:14 +0900] "GET /SimpleTwitter/css/style.css HTTP/1.1" 304 -
0:0:0:0:0:0:0:1 - - [04/Feb/2022:15:36:14 +0900] "GET /SimpleTwitter/js/jquery-3.6.0.min.js HTTP/1.1" 304 -
0:0:0:0:0:0:0:1 - - [04/Feb/2022:15:36:14 +0900] "GET /SimpleTwitter/js/main.js HTTP/1.1" 304 -
0:0:0:0:0:0:0:1 - - [04/Feb/2022:15:36:17 +0900] "POST /SimpleTwitter/deleteMessage HTTP/1.1" 302 -
0:0:0:0:0:0:0:1 - - [04/Feb/2022:15:36:17 +0900] "GET /SimpleTwitter/ HTTP/1.1" 200 14998
0:0:0:0:0:0:0:1 - - [04/Feb/2022:15:40:12 +0900] "GET /SimpleTwitter/ HTTP/1.1" 200 14998
0:0:0:0:0:0:0:1 - - [04/Feb/2022:15:40:12 +0900] "GET /SimpleTwitter/css/style.css HTTP/1.1" 304 -
0:0:0:0:0:0:0:1 - - [04/Feb/2022:15:40:12 +0900] "GET /SimpleTwitter/js/jquery-3.6.0.min.js HTTP/1.1" 304 -
0:0:0:0:0:0:0:1 - - [04/Feb/2022:15:40:12 +0900] "GET /SimpleTwitter/js/main.js HTTP/1.1" 200 233
0:0:0:0:0:0:0:1 - - [04/Feb/2022:15:40:20 +0900] "POST /SimpleTwitter/message HTTP/1.1" 302 -
0:0:0:0:0:0:0:1 - - [04/Feb/2022:15:40:20 +0900] "GET /SimpleTwitter/ HTTP/1.1" 200 16624
0:0:0:0:0:0:0:1 - - [04/Feb/2022:15:40:20 +0900] "GET /SimpleTwitter/js/main.js HTTP/1.1" 304 -
0:0:0:0:0:0:0:1 - - [04/Feb/2022:15:40:22 +0900] "POST /SimpleTwitter/deleteMessage HTTP/1.1" 302 -
0:0:0:0:0:0:0:1 - - [04/Feb/2022:15:40:22 +0900] "GET /SimpleTwitter/ HTTP/1.1" 200 14998
0:0:0:0:0:0:0:1 - - [04/Feb/2022:15:40:22 +0900] "GET /SimpleTwitter/js/main.js HTTP/1.1" 304 -
0:0:0:0:0:0:0:1 - - [04/Feb/2022:15:41:12 +0900] "GET /SimpleTwitter/ HTTP/1.1" 200 14998
0:0:0:0:0:0:0:1 - - [04/Feb/2022:15:41:12 +0900] "GET /SimpleTwitter/css/style.css HTTP/1.1" 304 -
0:0:0:0:0:0:0:1 - - [04/Feb/2022:15:41:12 +0900] "GET /SimpleTwitter/js/jquery-3.6.0.min.js HTTP/1.1" 200 89723
0:0:0:0:0:0:0:1 - - [04/Feb/2022:15:41:12 +0900] "GET /SimpleTwitter/js/main.js HTTP/1.1" 404 1089
0:0:0:0:0:0:0:1 - - [04/Feb/2022:15:41:17 +0900] "POST /SimpleTwitter/message HTTP/1.1" 302 -
0:0:0:0:0:0:0:1 - - [04/Feb/2022:15:41:17 +0900] "GET /SimpleTwitter/ HTTP/1.1" 200 16624
0:0:0:0:0:0:0:1 - - [04/Feb/2022:15:41:17 +0900] "GET /SimpleTwitter/js/jquery-3.6.0.min.js HTTP/1.1" 304 -
0:0:0:0:0:0:0:1 - - [04/Feb/2022:15:41:17 +0900] "GET /SimpleTwitter/js/main.js HTTP/1.1" 404 1089
0:0:0:0:0:0:0:1 - - [04/Feb/2022:15:41:18 +0900] "POST /SimpleTwitter/deleteMessage HTTP/1.1" 302 -
0:0:0:0:0:0:0:1 - - [04/Feb/2022:15:41:18 +0900] "GET /SimpleTwitter/ HTTP/1.1" 200 14998
0:0:0:0:0:0:0:1 - - [04/Feb/2022:15:41:18 +0900] "GET /SimpleTwitter/js/jquery-3.6.0.min.js HTTP/1.1" 304 -
0:0:0:0:0:0:0:1 - - [04/Feb/2022:15:41:18 +0900] "GET /SimpleTwitter/js/main.js HTTP/1.1" 404 1089
127.0.0.1 - - [04/Feb/2022:15:41:32 +0900] "GET / HTTP/1.1" 404 1065
0:0:0:0:0:0:0:1 - - [04/Feb/2022:15:41:42 +0900] "GET /SimpleTwitter/ HTTP/1.1" 200 7895
0:0:0:0:0:0:0:1 - - [04/Feb/2022:15:41:42 +0900] "GET /SimpleTwitter/css/style.css HTTP/1.1" 304 -
0:0:0:0:0:0:0:1 - - [04/Feb/2022:15:41:42 +0900] "GET /SimpleTwitter/js/jquery-3.6.0.min.js HTTP/1.1" 304 -
0:0:0:0:0:0:0:1 - - [04/Feb/2022:15:41:44 +0900] "GET /SimpleTwitter/login HTTP/1.1" 200 1001
0:0:0:0:0:0:0:1 - - [04/Feb/2022:15:41:50 +0900] "POST /SimpleTwitter/login HTTP/1.1" 302 -
0:0:0:0:0:0:0:1 - - [04/Feb/2022:15:41:50 +0900] "GET /SimpleTwitter/ HTTP/1.1" 200 14932
0:0:0:0:0:0:0:1 - - [04/Feb/2022:15:41:50 +0900] "GET /SimpleTwitter/js/jquery-3.6.0.min.js HTTP/1.1" 304 -
0:0:0:0:0:0:0:1 - - [04/Feb/2022:15:42:00 +0900] "GET /SimpleTwitter/ HTTP/1.1" 200 7895
0:0:0:0:0:0:0:1 - - [04/Feb/2022:15:42:00 +0900] "GET /SimpleTwitter/js/jquery-3.6.0.min.js HTTP/1.1" 200 89723
0:0:0:0:0:0:0:1 - - [04/Feb/2022:15:42:01 +0900] "GET /SimpleTwitter/login HTTP/1.1" 200 1001
0:0:0:0:0:0:0:1 - - [04/Feb/2022:15:42:06 +0900] "POST /SimpleTwitter/login HTTP/1.1" 302 -
0:0:0:0:0:0:0:1 - - [04/Feb/2022:15:42:06 +0900] "GET /SimpleTwitter/ HTTP/1.1" 200 14932
0:0:0:0:0:0:0:1 - - [04/Feb/2022:15:42:06 +0900] "GET /SimpleTwitter/js/jquery-3.6.0.min.js HTTP/1.1" 304 -
0:0:0:0:0:0:0:1 - - [04/Feb/2022:15:42:12 +0900] "POST /SimpleTwitter/message HTTP/1.1" 302 -
0:0:0:0:0:0:0:1 - - [04/Feb/2022:15:42:12 +0900] "GET /SimpleTwitter/ HTTP/1.1" 200 16558
0:0:0:0:0:0:0:1 - - [04/Feb/2022:15:42:12 +0900] "GET /SimpleTwitter/js/jquery-3.6.0.min.js HTTP/1.1" 304 -
0:0:0:0:0:0:0:1 - - [04/Feb/2022:15:42:13 +0900] "POST /SimpleTwitter/deleteMessage HTTP/1.1" 302 -
0:0:0:0:0:0:0:1 - - [04/Feb/2022:15:42:13 +0900] "GET /SimpleTwitter/ HTTP/1.1" 200 14932
0:0:0:0:0:0:0:1 - - [04/Feb/2022:15:47:55 +0900] "GET /SimpleTwitter/ HTTP/1.1" 200 14932
0:0:0:0:0:0:0:1 - - [04/Feb/2022:15:47:55 +0900] "GET /SimpleTwitter/css/style.css HTTP/1.1" 304 -
0:0:0:0:0:0:0:1 - - [04/Feb/2022:15:47:55 +0900] "GET /SimpleTwitter/js/jquery-3.6.0.min.js HTTP/1.1" 200 89680
0:0:0:0:0:0:0:1 - - [04/Feb/2022:15:48:00 +0900] "POST /SimpleTwitter/message HTTP/1.1" 302 -
0:0:0:0:0:0:0:1 - - [04/Feb/2022:15:48:00 +0900] "GET /SimpleTwitter/ HTTP/1.1" 200 16553
0:0:0:0:0:0:0:1 - - [04/Feb/2022:15:48:00 +0900] "GET /SimpleTwitter/js/jquery-3.6.0.min.js HTTP/1.1" 304 -
0:0:0:0:0:0:0:1 - - [04/Feb/2022:15:48:03 +0900] "GET /SimpleTwitter/ HTTP/1.1" 200 16553
0:0:0:0:0:0:0:1 - - [04/Feb/2022:15:48:03 +0900] "GET /SimpleTwitter/css/style.css HTTP/1.1" 304 -
0:0:0:0:0:0:0:1 - - [04/Feb/2022:15:48:03 +0900] "GET /SimpleTwitter/js/jquery-3.6.0.min.js HTTP/1.1" 304 -
0:0:0:0:0:0:0:1 - - [04/Feb/2022:15:48:09 +0900] "POST /SimpleTwitter/deleteMessage HTTP/1.1" 302 -
0:0:0:0:0:0:0:1 - - [04/Feb/2022:15:48:09 +0900] "GET /SimpleTwitter/ HTTP/1.1" 200 14932
0:0:0:0:0:0:0:1 - - [04/Feb/2022:15:48:09 +0900] "GET /SimpleTwitter/js/jquery-3.6.0.min.js HTTP/1.1" 304 -
0:0:0:0:0:0:0:1 - - [04/Feb/2022:15:48:14 +0900] "POST /SimpleTwitter/message HTTP/1.1" 302 -
0:0:0:0:0:0:0:1 - - [04/Feb/2022:15:48:14 +0900] "GET /SimpleTwitter/ HTTP/1.1" 200 16553
0:0:0:0:0:0:0:1 - - [04/Feb/2022:15:48:14 +0900] "GET /SimpleTwitter/js/jquery-3.6.0.min.js HTTP/1.1" 304 -
0:0:0:0:0:0:0:1 - - [04/Feb/2022:15:48:18 +0900] "POST /SimpleTwitter/deleteMessage HTTP/1.1" 302 -
0:0:0:0:0:0:0:1 - - [04/Feb/2022:15:48:18 +0900] "GET /SimpleTwitter/ HTTP/1.1" 200 14932
0:0:0:0:0:0:0:1 - - [04/Feb/2022:15:48:54 +0900] "GET /SimpleTwitter/setting HTTP/1.1" 200 1585
0:0:0:0:0:0:0:1 - - [04/Feb/2022:15:52:46 +0900] "POST /SimpleTwitter/deleteMessage HTTP/1.1" 302 -
0:0:0:0:0:0:0:1 - - [04/Feb/2022:15:52:46 +0900] "GET /SimpleTwitter/ HTTP/1.1" 200 12617
0:0:0:0:0:0:0:1 - - [04/Feb/2022:15:52:46 +0900] "GET /SimpleTwitter/js/jquery-3.6.0.min.js HTTP/1.1" 304 -
0:0:0:0:0:0:0:1 - - [04/Feb/2022:15:52:56 +0900] "POST /SimpleTwitter/deleteMessage HTTP/1.1" 302 -
0:0:0:0:0:0:0:1 - - [04/Feb/2022:15:52:56 +0900] "GET /SimpleTwitter/ HTTP/1.1" 200 10989
0:0:0:0:0:0:0:1 - - [04/Feb/2022:15:53:02 +0900] "GET /SimpleTwitter/ HTTP/1.1" 200 10989
0:0:0:0:0:0:0:1 - - [04/Feb/2022:15:53:02 +0900] "GET /SimpleTwitter/css/style.css HTTP/1.1" 304 -
0:0:0:0:0:0:0:1 - - [04/Feb/2022:15:53:02 +0900] "GET /SimpleTwitter/js/jquery-3.6.0.min.js HTTP/1.1" 304 -
0:0:0:0:0:0:0:1 - - [04/Feb/2022:15:53:09 +0900] "POST /SimpleTwitter/message HTTP/1.1" 302 -
0:0:0:0:0:0:0:1 - - [04/Feb/2022:15:53:09 +0900] "GET /SimpleTwitter/ HTTP/1.1" 200 12605
0:0:0:0:0:0:0:1 - - [04/Feb/2022:15:53:14 +0900] "POST /SimpleTwitter/deleteMessage HTTP/1.1" 302 -
0:0:0:0:0:0:0:1 - - [04/Feb/2022:15:53:14 +0900] "GET /SimpleTwitter/ HTTP/1.1" 200 10990
0:0:0:0:0:0:0:1 - - [04/Feb/2022:15:53:45 +0900] "POST /SimpleTwitter/message HTTP/1.1" 302 -
0:0:0:0:0:0:0:1 - - [04/Feb/2022:15:53:45 +0900] "GET /SimpleTwitter/ HTTP/1.1" 200 12608
0:0:0:0:0:0:0:1 - - [04/Feb/2022:15:53:45 +0900] "GET /SimpleTwitter/js/jquery-3.6.0.min.js HTTP/1.1" 304 -
0:0:0:0:0:0:0:1 - - [04/Feb/2022:15:53:56 +0900] "POST /SimpleTwitter/deleteMessage HTTP/1.1" 302 -
0:0:0:0:0:0:0:1 - - [04/Feb/2022:15:53:56 +0900] "GET /SimpleTwitter/ HTTP/1.1" 200 10992
0:0:0:0:0:0:0:1 - - [04/Feb/2022:15:54:53 +0900] "GET /SimpleTwitter/ HTTP/1.1" 200 11001
0:0:0:0:0:0:0:1 - - [04/Feb/2022:15:54:53 +0900] "GET /SimpleTwitter/css/style.css HTTP/1.1" 304 -
0:0:0:0:0:0:0:1 - - [04/Feb/2022:15:54:53 +0900] "GET /SimpleTwitter/js/jquery-3.6.0.min.js HTTP/1.1" 200 89680
0:0:0:0:0:0:0:1 - - [04/Feb/2022:15:54:58 +0900] "POST /SimpleTwitter/message HTTP/1.1" 302 -
0:0:0:0:0:0:0:1 - - [04/Feb/2022:15:54:58 +0900] "GET /SimpleTwitter/ HTTP/1.1" 200 12622
0:0:0:0:0:0:0:1 - - [04/Feb/2022:15:54:58 +0900] "GET /SimpleTwitter/js/jquery-3.6.0.min.js HTTP/1.1" 304 -
0:0:0:0:0:0:0:1 - - [04/Feb/2022:15:55:13 +0900] "GET /SimpleTwitter/edit?message_id=41 HTTP/1.1" 200 1451
0:0:0:0:0:0:0:1 - - [04/Feb/2022:15:55:15 +0900] "GET /SimpleTwitter/ HTTP/1.1" 200 12622
0:0:0:0:0:0:0:1 - - [04/Feb/2022:15:55:15 +0900] "GET /SimpleTwitter/js/jquery-3.6.0.min.js HTTP/1.1" 304 -
0:0:0:0:0:0:0:1 - - [04/Feb/2022:15:57:30 +0900] "GET /SimpleTwitter/ HTTP/1.1" 200 12622
0:0:0:0:0:0:0:1 - - [04/Feb/2022:15:57:30 +0900] "GET /SimpleTwitter/css/style.css HTTP/1.1" 304 -
0:0:0:0:0:0:0:1 - - [04/Feb/2022:15:57:30 +0900] "GET /SimpleTwitter/js/jquery-3.6.0.min.js HTTP/1.1" 200 89860
0:0:0:0:0:0:0:1 - - [04/Feb/2022:15:57:32 +0900] "GET /SimpleTwitter/edit?message_id=41 HTTP/1.1" 200 1551
0:0:0:0:0:0:0:1 - - [04/Feb/2022:15:57:32 +0900] "GET /SimpleTwitter/js/jquery-3.6.0.min.js HTTP/1.1" 304 -
0:0:0:0:0:0:0:1 - - [04/Feb/2022:15:57:36 +0900] "POST /SimpleTwitter/edit HTTP/1.1" 302 -
0:0:0:0:0:0:0:1 - - [04/Feb/2022:15:57:36 +0900] "GET /SimpleTwitter/ HTTP/1.1" 200 12622
0:0:0:0:0:0:0:1 - - [04/Feb/2022:15:57:36 +0900] "GET /SimpleTwitter/js/jquery-3.6.0.min.js HTTP/1.1" 304 -
0:0:0:0:0:0:0:1 - - [04/Feb/2022:15:58:07 +0900] "GET /SimpleTwitter/edit?message_id=30 HTTP/1.1" 200 1551
0:0:0:0:0:0:0:1 - - [04/Feb/2022:15:58:07 +0900] "GET /SimpleTwitter/js/jquery-3.6.0.min.js HTTP/1.1" 200 89860
0:0:0:0:0:0:0:1 - - [04/Feb/2022:15:58:11 +0900] "POST /SimpleTwitter/edit HTTP/1.1" 302 -
0:0:0:0:0:0:0:1 - - [04/Feb/2022:15:58:11 +0900] "GET /SimpleTwitter/ HTTP/1.1" 200 12622
0:0:0:0:0:0:0:1 - - [04/Feb/2022:15:58:16 +0900] "GET /SimpleTwitter/edit?message_id=40 HTTP/1.1" 200 1551
0:0:0:0:0:0:0:1 - - [04/Feb/2022:15:58:16 +0900] "GET /SimpleTwitter/js/jquery-3.6.0.min.js HTTP/1.1" 304 -
0:0:0:0:0:0:0:1 - - [04/Feb/2022:15:58:21 +0900] "GET /SimpleTwitter/ HTTP/1.1" 200 12622
0:0:0:0:0:0:0:1 - - [04/Feb/2022:15:58:21 +0900] "GET /SimpleTwitter/js/jquery-3.6.0.min.js HTTP/1.1" 304 -
0:0:0:0:0:0:0:1 - - [04/Feb/2022:15:58:28 +0900] "GET /SimpleTwitter/?user_id=23 HTTP/1.1" 200 9561
0:0:0:0:0:0:0:1 - - [04/Feb/2022:15:58:28 +0900] "GET /SimpleTwitter/js/jquery-3.6.0.min.js HTTP/1.1" 304 -
0:0:0:0:0:0:0:1 - - [04/Feb/2022:15:58:37 +0900] "GET /SimpleTwitter/setting HTTP/1.1" 200 1585
0:0:0:0:0:0:0:1 - - [04/Feb/2022:16:00:48 +0900] "GET /SimpleTwitter/ HTTP/1.1" 200 12622
0:0:0:0:0:0:0:1 - - [04/Feb/2022:16:00:48 +0900] "GET /SimpleTwitter/js/jquery-3.6.0.min.js HTTP/1.1" 200 89843
0:0:0:0:0:0:0:1 - - [04/Feb/2022:16:00:50 +0900] "GET /SimpleTwitter/edit?message_id=41 HTTP/1.1" 200 1551
0:0:0:0:0:0:0:1 - - [04/Feb/2022:16:00:50 +0900] "GET /SimpleTwitter/js/jquery-3.6.0.min.js HTTP/1.1" 304 -
0:0:0:0:0:0:0:1 - - [04/Feb/2022:16:00:51 +0900] "POST /SimpleTwitter/edit HTTP/1.1" 302 -
0:0:0:0:0:0:0:1 - - [04/Feb/2022:16:00:51 +0900] "GET /SimpleTwitter/ HTTP/1.1" 200 12622
0:0:0:0:0:0:0:1 - - [04/Feb/2022:16:00:51 +0900] "GET /SimpleTwitter/js/jquery-3.6.0.min.js HTTP/1.1" 304 -
0:0:0:0:0:0:0:1 - - [04/Feb/2022:16:01:03 +0900] "GET /SimpleTwitter/ HTTP/1.1" 200 12622
0:0:0:0:0:0:0:1 - - [04/Feb/2022:16:01:03 +0900] "GET /SimpleTwitter/js/jquery-3.6.0.min.js HTTP/1.1" 200 89860
0:0:0:0:0:0:0:1 - - [04/Feb/2022:16:01:05 +0900] "GET /SimpleTwitter/edit?message_id=41 HTTP/1.1" 200 1551
0:0:0:0:0:0:0:1 - - [04/Feb/2022:16:01:05 +0900] "GET /SimpleTwitter/js/jquery-3.6.0.min.js HTTP/1.1" 304 -
0:0:0:0:0:0:0:1 - - [04/Feb/2022:16:01:08 +0900] "POST /SimpleTwitter/edit HTTP/1.1" 302 -
0:0:0:0:0:0:0:1 - - [04/Feb/2022:16:01:08 +0900] "GET /SimpleTwitter/ HTTP/1.1" 200 12622
0:0:0:0:0:0:0:1 - - [04/Feb/2022:16:01:08 +0900] "GET /SimpleTwitter/js/jquery-3.6.0.min.js HTTP/1.1" 304 -
0:0:0:0:0:0:0:1 - - [04/Feb/2022:16:01:25 +0900] "GET /SimpleTwitter/logout HTTP/1.1" 302 -
0:0:0:0:0:0:0:1 - - [04/Feb/2022:16:01:25 +0900] "GET /SimpleTwitter/ HTTP/1.1" 200 6599
0:0:0:0:0:0:0:1 - - [04/Feb/2022:16:01:25 +0900] "GET /SimpleTwitter/js/jquery-3.6.0.min.js HTTP/1.1" 200 89860
0:0:0:0:0:0:0:1 - - [04/Feb/2022:16:01:30 +0900] "GET /SimpleTwitter/login HTTP/1.1" 200 1001
0:0:0:0:0:0:0:1 - - [04/Feb/2022:16:48:28 +0900] "GET /SimpleTwitter/ HTTP/1.1" 200 9163
0:0:0:0:0:0:0:1 - - [04/Feb/2022:16:48:28 +0900] "GET /SimpleTwitter/js/jquery-3.6.0.min.js HTTP/1.1" 200 90032
0:0:0:0:0:0:0:1 - - [04/Feb/2022:16:52:43 +0900] "GET /SimpleTwitter/ HTTP/1.1" 200 9147
0:0:0:0:0:0:0:1 - - [04/Feb/2022:16:52:43 +0900] "GET /SimpleTwitter/js/jquery-3.6.0.min.js HTTP/1.1" 200 90022
0:0:0:0:0:0:0:1 - - [04/Feb/2022:16:55:53 +0900] "GET /SimpleTwitter/login HTTP/1.1" 200 1001
0:0:0:0:0:0:0:1 - - [04/Feb/2022:16:56:00 +0900] "POST /SimpleTwitter/login HTTP/1.1" 302 -
0:0:0:0:0:0:0:1 - - [04/Feb/2022:16:56:00 +0900] "GET /SimpleTwitter/ HTTP/1.1" 200 15150
0:0:0:0:0:0:0:1 - - [04/Feb/2022:16:56:00 +0900] "GET /SimpleTwitter/js/jquery-3.6.0.min.js HTTP/1.1" 304 -
0:0:0:0:0:0:0:1 - - [04/Feb/2022:16:57:25 +0900] "GET /SimpleTwitter/ HTTP/1.1" 200 9147
0:0:0:0:0:0:0:1 - - [04/Feb/2022:16:57:25 +0900] "GET /SimpleTwitter/js/jquery-3.6.0.min.js HTTP/1.1" 200 90048
0:0:0:0:0:0:0:1 - - [04/Feb/2022:16:58:56 +0900] "GET /SimpleTwitter/ HTTP/1.1" 200 12436
0:0:0:0:0:0:0:1 - - [04/Feb/2022:16:58:56 +0900] "GET /SimpleTwitter/js/jquery-3.6.0.min.js HTTP/1.1" 304 -
0:0:0:0:0:0:0:1 - - [04/Feb/2022:17:00:33 +0900] "GET /SimpleTwitter/ HTTP/1.1" 200 8816
0:0:0:0:0:0:0:1 - - [04/Feb/2022:17:00:33 +0900] "GET /SimpleTwitter/js/jquery-3.6.0.min.js HTTP/1.1" 200 90044
0:0:0:0:0:0:0:1 - - [04/Feb/2022:17:01:43 +0900] "GET /SimpleTwitter/ HTTP/1.1" 200 8958
0:0:0:0:0:0:0:1 - - [04/Feb/2022:17:01:43 +0900] "GET /SimpleTwitter/js/jquery-3.6.0.min.js HTTP/1.1" 200 90036
0:0:0:0:0:0:0:1 - - [04/Feb/2022:17:01:48 +0900] "GET /SimpleTwitter/ HTTP/1.1" 200 8958
0:0:0:0:0:0:0:1 - - [04/Feb/2022:17:01:48 +0900] "GET /SimpleTwitter/js/jquery-3.6.0.min.js HTTP/1.1" 304 -
0:0:0:0:0:0:0:1 - - [04/Feb/2022:17:03:38 +0900] "GET /SimpleTwitter/ HTTP/1.1" 200 14961
0:0:0:0:0:0:0:1 - - [04/Feb/2022:17:03:38 +0900] "GET /SimpleTwitter/css/style.css HTTP/1.1" 304 -
0:0:0:0:0:0:0:1 - - [04/Feb/2022:17:03:38 +0900] "GET /SimpleTwitter/js/jquery-3.6.0.min.js HTTP/1.1" 200 90036
