127.0.0.1 - - [24/Feb/2022:15:43:46 +0900] "GET / HTTP/1.1" 404 1065
0:0:0:0:0:0:0:1 - - [24/Feb/2022:15:43:47 +0900] "GET /SimpleTwitter/ HTTP/1.1" 500 1970
0:0:0:0:0:0:0:1 - - [24/Feb/2022:15:44:52 +0900] "GET /SimpleTwitter/ HTTP/1.1" 500 1970
127.0.0.1 - - [24/Feb/2022:15:50:34 +0900] "GET / HTTP/1.1" 404 1065
0:0:0:0:0:0:0:1 - - [24/Feb/2022:15:50:36 +0900] "GET /SimpleTwitter/ HTTP/1.1" 500 1970
0:0:0:0:0:0:0:1 - - [24/Feb/2022:15:50:40 +0900] "GET /SimpleTwitter/ HTTP/1.1" 500 1970
127.0.0.1 - - [24/Feb/2022:15:54:38 +0900] "GET / HTTP/1.1" 404 1065
0:0:0:0:0:0:0:1 - - [24/Feb/2022:15:54:42 +0900] "GET /SimpleTwitter/ HTTP/1.1" 500 1970
127.0.0.1 - - [24/Feb/2022:15:59:24 +0900] "GET / HTTP/1.1" 404 1065
0:0:0:0:0:0:0:1 - - [24/Feb/2022:15:59:24 +0900] "GET /SimpleTwitter/ HTTP/1.1" 500 1970
127.0.0.1 - - [24/Feb/2022:16:00:49 +0900] "GET / HTTP/1.1" 404 1065
0:0:0:0:0:0:0:1 - - [24/Feb/2022:16:00:52 +0900] "GET /SimpleTwitter/ HTTP/1.1" 500 1970
127.0.0.1 - - [24/Feb/2022:16:02:14 +0900] "GET / HTTP/1.1" 404 1065
0:0:0:0:0:0:0:1 - - [24/Feb/2022:16:02:15 +0900] "GET /SimpleTwitters/ HTTP/1.1" 200 11263
0:0:0:0:0:0:0:1 - - [24/Feb/2022:16:02:15 +0900] "GET /SimpleTwitters/css/style.css HTTP/1.1" 200 1808
0:0:0:0:0:0:0:1 - - [24/Feb/2022:16:02:15 +0900] "GET /SimpleTwitters/js/jquery-3.6.0.min.js HTTP/1.1" 200 90036
127.0.0.1 - - [24/Feb/2022:16:05:05 +0900] "GET / HTTP/1.1" 404 1065
0:0:0:0:0:0:0:1 - - [24/Feb/2022:16:05:06 +0900] "GET /SimpleTwitter/ HTTP/1.1" 500 1970
127.0.0.1 - - [24/Feb/2022:16:08:39 +0900] "GET / HTTP/1.1" 404 1065
0:0:0:0:0:0:0:1 - - [24/Feb/2022:16:08:50 +0900] "GET / HTTP/1.1" 404 1065
0:0:0:0:0:0:0:1 - - [24/Feb/2022:16:08:50 +0900] "GET /favicon.ico HTTP/1.1" 404 1076
0:0:0:0:0:0:0:1 - - [24/Feb/2022:16:09:01 +0900] "GET /SimpleTwitter/setting HTTP/1.1" 500 1512
0:0:0:0:0:0:0:1 - - [24/Feb/2022:16:09:07 +0900] "GET /SimpleTwitter HTTP/1.1" 302 -
0:0:0:0:0:0:0:1 - - [24/Feb/2022:16:09:07 +0900] "GET /SimpleTwitter/ HTTP/1.1" 500 1970
0:0:0:0:0:0:0:1 - - [24/Feb/2022:16:09:14 +0900] "GET /SimpleTwitter HTTP/1.1" 302 -
0:0:0:0:0:0:0:1 - - [24/Feb/2022:16:09:14 +0900] "GET /SimpleTwitter/ HTTP/1.1" 500 1970
127.0.0.1 - - [24/Feb/2022:16:13:24 +0900] "GET / HTTP/1.1" 404 1065
0:0:0:0:0:0:0:1 - - [24/Feb/2022:16:13:30 +0900] "GET /SimpleTwitter/ HTTP/1.1" 200 638
0:0:0:0:0:0:0:1 - - [24/Feb/2022:16:13:30 +0900] "GET /SimpleTwitter/css/style.css HTTP/1.1" 200 1686
0:0:0:0:0:0:0:1 - - [24/Feb/2022:16:13:36 +0900] "GET /SimpleTwitter/login HTTP/1.1" 200 822
0:0:0:0:0:0:0:1 - - [24/Feb/2022:16:13:38 +0900] "GET /SimpleTwitter/ HTTP/1.1" 200 638
