127.0.0.1 - - [27/Jan/2022:09:16:48 +0900] "GET / HTTP/1.1" 404 1065
0:0:0:0:0:0:0:1 - - [27/Jan/2022:09:16:49 +0900] "GET /SimpleTwitter/ HTTP/1.1" 500 1568
127.0.0.1 - - [27/Jan/2022:09:28:12 +0900] "GET / HTTP/1.1" 404 1065
0:0:0:0:0:0:0:1 - - [27/Jan/2022:09:30:13 +0900] "GET /SimpleTwitter/ HTTP/1.1" 500 1568
0:0:0:0:0:0:0:1 - - [27/Jan/2022:09:30:42 +0900] "GET /SimpleTwitter/ HTTP/1.1" 500 1568
0:0:0:0:0:0:0:1 - - [27/Jan/2022:09:31:51 +0900] "GET /SimpleTwitter/ HTTP/1.1" 500 1568
0:0:0:0:0:0:0:1 - - [27/Jan/2022:09:33:10 +0900] "GET /SimpleTwitter/ HTTP/1.1" 500 1568
127.0.0.1 - - [27/Jan/2022:09:36:59 +0900] "GET / HTTP/1.1" 404 1065
127.0.0.1 - - [27/Jan/2022:09:42:20 +0900] "GET / HTTP/1.1" 404 1065
0:0:0:0:0:0:0:1 - - [27/Jan/2022:09:42:20 +0900] "GET /SimpleTwitter/ HTTP/1.1" 500 1568
0:0:0:0:0:0:0:1 - - [27/Jan/2022:09:42:29 +0900] "GET /SimpleTwitter/ HTTP/1.1" 500 1568
0:0:0:0:0:0:0:1 - - [27/Jan/2022:09:42:41 +0900] "GET /SimpleTwitter/ HTTP/1.1" 500 1568
0:0:0:0:0:0:0:1 - - [27/Jan/2022:09:44:29 +0900] "GET /SimpleTwitter/ HTTP/1.1" 500 1568
0:0:0:0:0:0:0:1 - - [27/Jan/2022:09:44:43 +0900] "GET /SimpleTwitter/ HTTP/1.1" 500 1568
0:0:0:0:0:0:0:1 - - [27/Jan/2022:09:45:25 +0900] "GET /SimpleTwitter/ HTTP/1.1" 500 1568
127.0.0.1 - - [27/Jan/2022:09:47:15 +0900] "GET / HTTP/1.1" 404 1065
0:0:0:0:0:0:0:1 - - [27/Jan/2022:09:47:44 +0900] "GET /SimpleTwitter/ HTTP/1.1" 500 1568
0:0:0:0:0:0:0:1 - - [27/Jan/2022:09:49:29 +0900] "GET /SimpleTwitter/ HTTP/1.1" 500 1568
127.0.0.1 - - [27/Jan/2022:09:51:09 +0900] "GET / HTTP/1.1" 404 1065
0:0:0:0:0:0:0:1 - - [27/Jan/2022:09:52:07 +0900] "GET /SimpleTwitter/ HTTP/1.1" 500 1760
127.0.0.1 - - [27/Jan/2022:10:06:52 +0900] "GET / HTTP/1.1" 404 1065
127.0.0.1 - - [27/Jan/2022:10:07:47 +0900] "GET / HTTP/1.1" 404 1065
0:0:0:0:0:0:0:1 - - [27/Jan/2022:10:07:48 +0900] "GET /SimpleTwitter/ HTTP/1.1" 500 3803
127.0.0.1 - - [27/Jan/2022:10:13:50 +0900] "GET / HTTP/1.1" 404 1065
0:0:0:0:0:0:0:1 - - [27/Jan/2022:10:13:51 +0900] "GET /SimpleTwitter/ HTTP/1.1" 500 3803
127.0.0.1 - - [27/Jan/2022:10:16:31 +0900] "GET / HTTP/1.1" 404 1065
0:0:0:0:0:0:0:1 - - [27/Jan/2022:10:16:32 +0900] "GET /SimpleTwitter/ HTTP/1.1" 500 3803
127.0.0.1 - - [27/Jan/2022:10:18:12 +0900] "GET / HTTP/1.1" 404 1065
0:0:0:0:0:0:0:1 - - [27/Jan/2022:10:20:44 +0900] "GET /SimpleTwitter/ HTTP/1.1" 500 3803
127.0.0.1 - - [27/Jan/2022:10:35:25 +0900] "GET / HTTP/1.1" 404 1065
0:0:0:0:0:0:0:1 - - [27/Jan/2022:10:35:34 +0900] "GET /SimpleTwitter/ HTTP/1.1" 200 6459
0:0:0:0:0:0:0:1 - - [27/Jan/2022:10:35:35 +0900] "GET /SimpleTwitter/css/style.css HTTP/1.1" 304 -
0:0:0:0:0:0:0:1 - - [27/Jan/2022:10:35:39 +0900] "GET /SimpleTwitter/?user_id=2 HTTP/1.1" 500 3803
127.0.0.1 - - [27/Jan/2022:10:40:15 +0900] "GET / HTTP/1.1" 404 1065
0:0:0:0:0:0:0:1 - - [27/Jan/2022:10:40:28 +0900] "GET /SimpleTwitter/ HTTP/1.1" 200 6459
0:0:0:0:0:0:0:1 - - [27/Jan/2022:10:40:30 +0900] "GET /SimpleTwitter/?user_id=2 HTTP/1.1" 500 3803
0:0:0:0:0:0:0:1 - - [27/Jan/2022:10:40:36 +0900] "GET /SimpleTwitter/ HTTP/1.1" 200 6459
0:0:0:0:0:0:0:1 - - [27/Jan/2022:10:40:36 +0900] "GET /SimpleTwitter/css/style.css HTTP/1.1" 304 -
0:0:0:0:0:0:0:1 - - [27/Jan/2022:10:40:38 +0900] "GET /SimpleTwitter/?user_id=2 HTTP/1.1" 500 3803
0:0:0:0:0:0:0:1 - - [27/Jan/2022:10:42:22 +0900] "GET /SimpleTwitter/?user_id=2 HTTP/1.1" 500 3803
0:0:0:0:0:0:0:1 - - [27/Jan/2022:10:42:24 +0900] "GET /SimpleTwitter/?user_id=2 HTTP/1.1" 500 3803
0:0:0:0:0:0:0:1 - - [27/Jan/2022:10:42:41 +0900] "GET /SimpleTwitter/ HTTP/1.1" 200 6459
0:0:0:0:0:0:0:1 - - [27/Jan/2022:10:42:43 +0900] "GET /SimpleTwitter/?user_id=2 HTTP/1.1" 500 3803
0:0:0:0:0:0:0:1 - - [27/Jan/2022:10:43:43 +0900] "GET /SimpleTwitter/?user_id=2 HTTP/1.1" 500 3803
0:0:0:0:0:0:0:1 - - [27/Jan/2022:10:43:56 +0900] "GET /SimpleTwitter/?user_id=2 HTTP/1.1" 500 3803
0:0:0:0:0:0:0:1 - - [27/Jan/2022:10:43:58 +0900] "GET /SimpleTwitter/?user_id=2 HTTP/1.1" 500 3803
0:0:0:0:0:0:0:1 - - [27/Jan/2022:10:44:00 +0900] "GET /SimpleTwitter/ HTTP/1.1" 200 6459
0:0:0:0:0:0:0:1 - - [27/Jan/2022:10:44:00 +0900] "GET /SimpleTwitter/css/style.css HTTP/1.1" 304 -
0:0:0:0:0:0:0:1 - - [27/Jan/2022:10:44:05 +0900] "GET /SimpleTwitter/login HTTP/1.1" 200 1001
0:0:0:0:0:0:0:1 - - [27/Jan/2022:10:44:12 +0900] "POST /SimpleTwitter/login HTTP/1.1" 302 -
0:0:0:0:0:0:0:1 - - [27/Jan/2022:10:44:12 +0900] "GET /SimpleTwitter/ HTTP/1.1" 200 7053
0:0:0:0:0:0:0:1 - - [27/Jan/2022:10:44:17 +0900] "GET /SimpleTwitter/setting HTTP/1.1" 200 1585
0:0:0:0:0:0:0:1 - - [27/Jan/2022:10:44:20 +0900] "GET /SimpleTwitter/ HTTP/1.1" 200 7053
0:0:0:0:0:0:0:1 - - [27/Jan/2022:10:44:24 +0900] "GET /SimpleTwitter/?user_id=2 HTTP/1.1" 500 3803
0:0:0:0:0:0:0:1 - - [27/Jan/2022:10:51:19 +0900] "GET /SimpleTwitter/ HTTP/1.1" 200 7053
0:0:0:0:0:0:0:1 - - [27/Jan/2022:10:51:22 +0900] "GET /SimpleTwitter/?user_id=2 HTTP/1.1" 500 3803
127.0.0.1 - - [27/Jan/2022:10:54:30 +0900] "GET / HTTP/1.1" 404 1065
0:0:0:0:0:0:0:1 - - [27/Jan/2022:10:57:24 +0900] "GET /SimpleTwitter/ HTTP/1.1" 200 7053
0:0:0:0:0:0:0:1 - - [27/Jan/2022:11:07:30 +0900] "GET /SimpleTwitter/?user_id=2 HTTP/1.1" 500 3803
127.0.0.1 - - [27/Jan/2022:11:07:54 +0900] "GET / HTTP/1.1" 404 1065
0:0:0:0:0:0:0:1 - - [27/Jan/2022:11:08:00 +0900] "GET /SimpleTwitter/?user_id=2 HTTP/1.1" 500 3803
0:0:0:0:0:0:0:1 - - [27/Jan/2022:11:09:35 +0900] "GET /SimpleTwitter/ HTTP/1.1" 200 6459
0:0:0:0:0:0:0:1 - - [27/Jan/2022:11:09:35 +0900] "GET /SimpleTwitter/css/style.css HTTP/1.1" 304 -
0:0:0:0:0:0:0:1 - - [27/Jan/2022:11:09:38 +0900] "GET /SimpleTwitter/?user_id=2 HTTP/1.1" 500 3803
127.0.0.1 - - [27/Jan/2022:11:10:06 +0900] "GET / HTTP/1.1" 404 1065
0:0:0:0:0:0:0:1 - - [27/Jan/2022:11:10:14 +0900] "GET /SimpleTwitter/ HTTP/1.1" 200 6459
0:0:0:0:0:0:0:1 - - [27/Jan/2022:11:10:14 +0900] "GET /SimpleTwitter/css/style.css HTTP/1.1" 304 -
0:0:0:0:0:0:0:1 - - [27/Jan/2022:11:13:00 +0900] "GET /SimpleTwitter/?user_id=2 HTTP/1.1" 200 6459
0:0:0:0:0:0:0:1 - - [27/Jan/2022:11:13:39 +0900] "GET /SimpleTwitter/?user_id=2 HTTP/1.1" 200 6459
0:0:0:0:0:0:0:1 - - [27/Jan/2022:11:13:45 +0900] "GET /SimpleTwitter/login HTTP/1.1" 200 1001
0:0:0:0:0:0:0:1 - - [27/Jan/2022:11:13:51 +0900] "POST /SimpleTwitter/login HTTP/1.1" 302 -
0:0:0:0:0:0:0:1 - - [27/Jan/2022:11:13:54 +0900] "GET /SimpleTwitter/ HTTP/1.1" 200 7053
0:0:0:0:0:0:0:1 - - [27/Jan/2022:11:14:00 +0900] "GET /SimpleTwitter/?user_id=2 HTTP/1.1" 200 7053
127.0.0.1 - - [27/Jan/2022:11:14:30 +0900] "GET / HTTP/1.1" 404 1065
0:0:0:0:0:0:0:1 - - [27/Jan/2022:11:14:40 +0900] "GET /SimpleTwitter/ HTTP/1.1" 200 6459
0:0:0:0:0:0:0:1 - - [27/Jan/2022:11:14:42 +0900] "GET /SimpleTwitter/?user_id=2 HTTP/1.1" 200 6459
0:0:0:0:0:0:0:1 - - [27/Jan/2022:11:14:47 +0900] "GET /SimpleTwitter/login HTTP/1.1" 200 1001
0:0:0:0:0:0:0:1 - - [27/Jan/2022:11:14:52 +0900] "POST /SimpleTwitter/login HTTP/1.1" 302 -
0:0:0:0:0:0:0:1 - - [27/Jan/2022:11:14:52 +0900] "GET /SimpleTwitter/ HTTP/1.1" 200 7053
0:0:0:0:0:0:0:1 - - [27/Jan/2022:11:14:53 +0900] "GET /SimpleTwitter/?user_id=2 HTTP/1.1" 200 7053
0:0:0:0:0:0:0:1 - - [27/Jan/2022:11:14:59 +0900] "GET /SimpleTwitter/setting HTTP/1.1" 200 1585
0:0:0:0:0:0:0:1 - - [27/Jan/2022:11:15:54 +0900] "GET /SimpleTwitter/?user_id=2 HTTP/1.1" 200 7053
0:0:0:0:0:0:0:1 - - [27/Jan/2022:11:15:54 +0900] "GET /SimpleTwitter/css/style.css HTTP/1.1" 304 -
0:0:0:0:0:0:0:1 - - [27/Jan/2022:11:15:57 +0900] "GET /SimpleTwitter/?user_id=2 HTTP/1.1" 200 7053
0:0:0:0:0:0:0:1 - - [27/Jan/2022:11:16:01 +0900] "GET /SimpleTwitter/logout HTTP/1.1" 302 -
0:0:0:0:0:0:0:1 - - [27/Jan/2022:11:16:01 +0900] "GET /SimpleTwitter/ HTTP/1.1" 200 6459
0:0:0:0:0:0:0:1 - - [27/Jan/2022:11:16:03 +0900] "GET /SimpleTwitter/?user_id=2 HTTP/1.1" 200 6459
0:0:0:0:0:0:0:1 - - [27/Jan/2022:11:19:45 +0900] "GET /SimpleTwitter/ HTTP/1.1" 200 6459
0:0:0:0:0:0:0:1 - - [27/Jan/2022:11:19:50 +0900] "GET /SimpleTwitter/login HTTP/1.1" 200 1001
0:0:0:0:0:0:0:1 - - [27/Jan/2022:11:20:10 +0900] "POST /SimpleTwitter/login HTTP/1.1" 200 1256
0:0:0:0:0:0:0:1 - - [27/Jan/2022:11:20:13 +0900] "GET /SimpleTwitter/ HTTP/1.1" 200 6459
0:0:0:0:0:0:0:1 - - [27/Jan/2022:11:20:15 +0900] "GET /SimpleTwitter/signup HTTP/1.1" 200 1413
0:0:0:0:0:0:0:1 - - [27/Jan/2022:11:21:09 +0900] "POST /SimpleTwitter/signup HTTP/1.1" 302 -
0:0:0:0:0:0:0:1 - - [27/Jan/2022:11:21:09 +0900] "GET /SimpleTwitter/ HTTP/1.1" 200 6459
0:0:0:0:0:0:0:1 - - [27/Jan/2022:11:21:12 +0900] "GET /SimpleTwitter/login HTTP/1.1" 200 1001
0:0:0:0:0:0:0:1 - - [27/Jan/2022:11:21:22 +0900] "POST /SimpleTwitter/login HTTP/1.1" 302 -
0:0:0:0:0:0:0:1 - - [27/Jan/2022:11:21:22 +0900] "GET /SimpleTwitter/ HTTP/1.1" 200 7019
0:0:0:0:0:0:0:1 - - [27/Jan/2022:11:21:34 +0900] "POST /SimpleTwitter/message HTTP/1.1" 302 -
0:0:0:0:0:0:0:1 - - [27/Jan/2022:11:21:34 +0900] "GET /SimpleTwitter/ HTTP/1.1" 200 7450
0:0:0:0:0:0:0:1 - - [27/Jan/2022:11:21:37 +0900] "GET /SimpleTwitter/?user_id=2 HTTP/1.1" 200 7019
0:0:0:0:0:0:0:1 - - [27/Jan/2022:11:21:45 +0900] "GET /SimpleTwitter/?user_id=7 HTTP/1.1" 200 1745
0:0:0:0:0:0:0:1 - - [27/Jan/2022:11:22:07 +0900] "GET /SimpleTwitter/?user_id=2 HTTP/1.1" 200 7019
0:0:0:0:0:0:0:1 - - [27/Jan/2022:11:22:40 +0900] "GET /SimpleTwitter/logout HTTP/1.1" 302 -
0:0:0:0:0:0:0:1 - - [27/Jan/2022:11:22:40 +0900] "GET /SimpleTwitter/ HTTP/1.1" 200 6890
0:0:0:0:0:0:0:1 - - [27/Jan/2022:11:22:42 +0900] "GET /SimpleTwitter/?user_id=7 HTTP/1.1" 200 1185
0:0:0:0:0:0:0:1 - - [27/Jan/2022:11:22:45 +0900] "GET /SimpleTwitter/?user_id=2 HTTP/1.1" 200 6459
127.0.0.1 - - [27/Jan/2022:11:57:40 +0900] "GET / HTTP/1.1" 404 1065
0:0:0:0:0:0:0:1 - - [27/Jan/2022:11:57:50 +0900] "GET /SimpleTwitter/ HTTP/1.1" 500 1628
0:0:0:0:0:0:0:1 - - [27/Jan/2022:11:58:04 +0900] "GET /SimpleTwitter/ HTTP/1.1" 500 1628
0:0:0:0:0:0:0:1 - - [27/Jan/2022:12:08:19 +0900] "GET /SimpleTwitter/ HTTP/1.1" 500 1628
0:0:0:0:0:0:0:1 - - [27/Jan/2022:12:08:35 +0900] "GET /SimpleTwitter/ HTTP/1.1" 500 1628
0:0:0:0:0:0:0:1 - - [27/Jan/2022:12:58:24 +0900] "GET /SimpleTwitter/ HTTP/1.1" 500 1628
127.0.0.1 - - [27/Jan/2022:13:45:03 +0900] "GET / HTTP/1.1" 404 1065
0:0:0:0:0:0:0:1 - - [27/Jan/2022:13:49:59 +0900] "GET /SimpleTwitter/ HTTP/1.1" 500 1628
0:0:0:0:0:0:0:1 - - [27/Jan/2022:13:50:17 +0900] "GET /SimpleTwitter/ HTTP/1.1" 500 1628
0:0:0:0:0:0:0:1 - - [27/Jan/2022:13:54:43 +0900] "GET /SimpleTwitter/ HTTP/1.1" 500 1628
127.0.0.1 - - [27/Jan/2022:13:55:25 +0900] "GET / HTTP/1.1" 404 1065
0:0:0:0:0:0:0:1 - - [27/Jan/2022:13:56:57 +0900] "GET /SimpleTwitter/ HTTP/1.1" 500 1628
127.0.0.1 - - [27/Jan/2022:14:00:41 +0900] "GET / HTTP/1.1" 404 1065
0:0:0:0:0:0:0:1 - - [27/Jan/2022:14:00:50 +0900] "GET /SimpleTwitter/ HTTP/1.1" 500 1628
0:0:0:0:0:0:0:1 - - [27/Jan/2022:14:01:19 +0900] "GET /SimpleTwitter/ HTTP/1.1" 500 1628
127.0.0.1 - - [27/Jan/2022:14:01:40 +0900] "GET / HTTP/1.1" 404 1065
0:0:0:0:0:0:0:1 - - [27/Jan/2022:14:02:54 +0900] "GET /SimpleTwitter/ HTTP/1.1" 500 1628
0:0:0:0:0:0:0:1 - - [27/Jan/2022:14:04:11 +0900] "GET /SimpleTwitter/ HTTP/1.1" 500 1628
127.0.0.1 - - [27/Jan/2022:14:06:21 +0900] "GET / HTTP/1.1" 404 1065
0:0:0:0:0:0:0:1 - - [27/Jan/2022:14:09:35 +0900] "GET /SimpleTwitter/ HTTP/1.1" 500 1628
127.0.0.1 - - [27/Jan/2022:14:10:31 +0900] "GET / HTTP/1.1" 404 1065
127.0.0.1 - - [27/Jan/2022:14:16:43 +0900] "GET / HTTP/1.1" 404 1065
0:0:0:0:0:0:0:1 - - [27/Jan/2022:14:24:00 +0900] "GET /SimpleTwitter/ HTTP/1.1" 500 1628
0:0:0:0:0:0:0:1 - - [27/Jan/2022:14:25:47 +0900] "GET /SimpleTwitter/ HTTP/1.1" 500 1628
127.0.0.1 - - [27/Jan/2022:14:27:44 +0900] "GET / HTTP/1.1" 404 1065
0:0:0:0:0:0:0:1 - - [27/Jan/2022:14:27:55 +0900] "GET /SimpleTwitter/ HTTP/1.1" 200 6890
0:0:0:0:0:0:0:1 - - [27/Jan/2022:14:30:17 +0900] "GET /SimpleTwitter/ HTTP/1.1" 200 6890
0:0:0:0:0:0:0:1 - - [27/Jan/2022:14:30:17 +0900] "GET /SimpleTwitter/css/style.css HTTP/1.1" 304 -
0:0:0:0:0:0:0:1 - - [27/Jan/2022:14:36:19 +0900] "GET /SimpleTwitter/?user_id=7 HTTP/1.1" 200 1185
127.0.0.1 - - [27/Jan/2022:14:36:57 +0900] "GET / HTTP/1.1" 404 1065
0:0:0:0:0:0:0:1 - - [27/Jan/2022:14:36:58 +0900] "GET /SimpleTwitter/ HTTP/1.1" 200 6890
0:0:0:0:0:0:0:1 - - [27/Jan/2022:14:37:00 +0900] "GET /SimpleTwitter/?user_id=7 HTTP/1.1" 200 1185
0:0:0:0:0:0:0:1 - - [27/Jan/2022:14:37:08 +0900] "GET /SimpleTwitter/?user_id=2 HTTP/1.1" 200 6459
0:0:0:0:0:0:0:1 - - [27/Jan/2022:14:37:13 +0900] "GET /SimpleTwitter/login HTTP/1.1" 200 1001
0:0:0:0:0:0:0:1 - - [27/Jan/2022:14:37:20 +0900] "POST /SimpleTwitter/login HTTP/1.1" 302 -
0:0:0:0:0:0:0:1 - - [27/Jan/2022:14:37:20 +0900] "GET /SimpleTwitter/ HTTP/1.1" 200 7484
0:0:0:0:0:0:0:1 - - [27/Jan/2022:14:37:24 +0900] "GET /SimpleTwitter/?user_id=7 HTTP/1.1" 200 1779
0:0:0:0:0:0:0:1 - - [27/Jan/2022:14:37:27 +0900] "GET /SimpleTwitter/?user_id=2 HTTP/1.1" 200 7053
127.0.0.1 - - [27/Jan/2022:16:37:16 +0900] "GET / HTTP/1.1" 404 1065
0:0:0:0:0:0:0:1 - - [27/Jan/2022:16:37:16 +0900] "GET /SimpleTwitter/ HTTP/1.1" 200 6890
0:0:0:0:0:0:0:1 - - [27/Jan/2022:16:37:18 +0900] "GET /SimpleTwitter/signup HTTP/1.1" 200 1413
0:0:0:0:0:0:0:1 - - [27/Jan/2022:16:37:45 +0900] "POST /SimpleTwitter/signup HTTP/1.1" 500 3596
0:0:0:0:0:0:0:1 - - [27/Jan/2022:16:40:48 +0900] "POST /SimpleTwitter/signup HTTP/1.1" 500 3596
0:0:0:0:0:0:0:1 - - [27/Jan/2022:16:46:17 +0900] "POST /SimpleTwitter/signup HTTP/1.1" 500 3596
0:0:0:0:0:0:0:1 - - [27/Jan/2022:16:46:32 +0900] "POST /SimpleTwitter/signup HTTP/1.1" 500 3596
0:0:0:0:0:0:0:1 - - [27/Jan/2022:16:47:21 +0900] "POST /SimpleTwitter/signup HTTP/1.1" 200 1677
0:0:0:0:0:0:0:1 - - [27/Jan/2022:16:47:42 +0900] "POST /SimpleTwitter/signup HTTP/1.1" 500 3596
127.0.0.1 - - [27/Jan/2022:16:51:13 +0900] "GET / HTTP/1.1" 404 1065
0:0:0:0:0:0:0:1 - - [27/Jan/2022:16:54:00 +0900] "POST /SimpleTwitter/signup HTTP/1.1" 500 3596
0:0:0:0:0:0:0:1 - - [27/Jan/2022:16:56:04 +0900] "POST /SimpleTwitter/signup HTTP/1.1" 500 3596
0:0:0:0:0:0:0:1 - - [27/Jan/2022:17:04:30 +0900] "POST /SimpleTwitter/signup HTTP/1.1" 500 3596
0:0:0:0:0:0:0:1 - - [27/Jan/2022:17:04:30 +0900] "POST /SimpleTwitter/signup HTTP/1.1" 500 3596
0:0:0:0:0:0:0:1 - - [27/Jan/2022:17:08:13 +0900] "POST /SimpleTwitter/signup HTTP/1.1" 500 3596
0:0:0:0:0:0:0:1 - - [27/Jan/2022:17:18:35 +0900] "POST /SimpleTwitter/signup HTTP/1.1" 500 3596
0:0:0:0:0:0:0:1 - - [27/Jan/2022:17:19:47 +0900] "POST /SimpleTwitter/signup HTTP/1.1" 200 1677
0:0:0:0:0:0:0:1 - - [27/Jan/2022:17:20:47 +0900] "POST /SimpleTwitter/signup HTTP/1.1" 302 -
0:0:0:0:0:0:0:1 - - [27/Jan/2022:17:20:49 +0900] "GET /SimpleTwitter/ HTTP/1.1" 200 6890
0:0:0:0:0:0:0:1 - - [27/Jan/2022:17:20:54 +0900] "GET /SimpleTwitter/login HTTP/1.1" 200 1001
0:0:0:0:0:0:0:1 - - [27/Jan/2022:17:20:58 +0900] "POST /SimpleTwitter/login HTTP/1.1" 302 -
0:0:0:0:0:0:0:1 - - [27/Jan/2022:17:21:01 +0900] "GET /SimpleTwitter/ HTTP/1.1" 200 7444
0:0:0:0:0:0:0:1 - - [27/Jan/2022:17:23:48 +0900] "GET /SimpleTwitter/setting HTTP/1.1" 200 1521
0:0:0:0:0:0:0:1 - - [27/Jan/2022:17:23:59 +0900] "POST /SimpleTwitter/setting HTTP/1.1" 200 1763
127.0.0.1 - - [27/Jan/2022:17:26:31 +0900] "GET / HTTP/1.1" 404 1065
127.0.0.1 - - [27/Jan/2022:17:27:36 +0900] "GET / HTTP/1.1" 404 1065
0:0:0:0:0:0:0:1 - - [27/Jan/2022:17:27:36 +0900] "GET /SimpleTwitter/ HTTP/1.1" 200 6890
0:0:0:0:0:0:0:1 - - [27/Jan/2022:17:27:41 +0900] "GET /SimpleTwitter/login HTTP/1.1" 200 1001
0:0:0:0:0:0:0:1 - - [27/Jan/2022:17:27:45 +0900] "POST /SimpleTwitter/login HTTP/1.1" 200 1256
0:0:0:0:0:0:0:1 - - [27/Jan/2022:17:27:52 +0900] "POST /SimpleTwitter/login HTTP/1.1" 302 -
0:0:0:0:0:0:0:1 - - [27/Jan/2022:17:27:52 +0900] "GET /SimpleTwitter/ HTTP/1.1" 200 7444
0:0:0:0:0:0:0:1 - - [27/Jan/2022:17:27:55 +0900] "GET /SimpleTwitter/setting HTTP/1.1" 200 1521
0:0:0:0:0:0:0:1 - - [27/Jan/2022:17:28:30 +0900] "POST /SimpleTwitter/setting HTTP/1.1" 200 1763
0:0:0:0:0:0:0:1 - - [27/Jan/2022:17:29:02 +0900] "GET /SimpleTwitter/ HTTP/1.1" 200 7444
0:0:0:0:0:0:0:1 - - [27/Jan/2022:17:29:04 +0900] "GET /SimpleTwitter/setting HTTP/1.1" 200 1521
0:0:0:0:0:0:0:1 - - [27/Jan/2022:17:29:05 +0900] "POST /SimpleTwitter/setting HTTP/1.1" 200 1763
0:0:0:0:0:0:0:1 - - [27/Jan/2022:17:29:07 +0900] "GET /SimpleTwitter/ HTTP/1.1" 200 7444
0:0:0:0:0:0:0:1 - - [27/Jan/2022:17:29:10 +0900] "GET /SimpleTwitter/ HTTP/1.1" 200 7444
0:0:0:0:0:0:0:1 - - [27/Jan/2022:17:29:12 +0900] "GET /SimpleTwitter/logout HTTP/1.1" 302 -
0:0:0:0:0:0:0:1 - - [27/Jan/2022:17:29:12 +0900] "GET /SimpleTwitter/ HTTP/1.1" 200 6890
0:0:0:0:0:0:0:1 - - [27/Jan/2022:17:29:15 +0900] "GET /SimpleTwitter/signup HTTP/1.1" 200 1413
0:0:0:0:0:0:0:1 - - [27/Jan/2022:17:29:26 +0900] "POST /SimpleTwitter/signup HTTP/1.1" 200 1677
