127.0.0.1 - - [07/Feb/2022:08:48:02 +0900] "GET / HTTP/1.1" 404 1065
0:0:0:0:0:0:0:1 - - [07/Feb/2022:08:48:05 +0900] "GET /SimpleTwitter/ HTTP/1.1" 200 12982
0:0:0:0:0:0:0:1 - - [07/Feb/2022:08:48:05 +0900] "GET /SimpleTwitter/css/style.css HTTP/1.1" 200 1808
0:0:0:0:0:0:0:1 - - [07/Feb/2022:08:48:05 +0900] "GET /SimpleTwitter/js/jquery-3.6.0.min.js HTTP/1.1" 200 90036
0:0:0:0:0:0:0:1 - - [07/Feb/2022:08:48:48 +0900] "GET /SimpleTwitter/ HTTP/1.1" 200 9523
0:0:0:0:0:0:0:1 - - [07/Feb/2022:08:48:48 +0900] "GET /SimpleTwitter/css/style.css HTTP/1.1" 304 -
0:0:0:0:0:0:0:1 - - [07/Feb/2022:08:48:48 +0900] "GET /SimpleTwitter/js/jquery-3.6.0.min.js HTTP/1.1" 304 -
0:0:0:0:0:0:0:1 - - [07/Feb/2022:08:51:03 +0900] "GET /SimpleTwitter/ HTTP/1.1" 200 9565
0:0:0:0:0:0:0:1 - - [07/Feb/2022:08:51:03 +0900] "GET /SimpleTwitter/css/style.css HTTP/1.1" 304 -
0:0:0:0:0:0:0:1 - - [07/Feb/2022:08:51:03 +0900] "GET /SimpleTwitter/js/jquery-3.6.0.min.js HTTP/1.1" 200 90036
0:0:0:0:0:0:0:1 - - [07/Feb/2022:08:51:44 +0900] "GET /SimpleTwitter/login HTTP/1.1" 200 1001
0:0:0:0:0:0:0:1 - - [07/Feb/2022:08:51:51 +0900] "POST /SimpleTwitter/login HTTP/1.1" 200 1256
0:0:0:0:0:0:0:1 - - [07/Feb/2022:08:51:59 +0900] "POST /SimpleTwitter/login HTTP/1.1" 302 -
0:0:0:0:0:0:0:1 - - [07/Feb/2022:08:51:59 +0900] "GET /SimpleTwitter/ HTTP/1.1" 200 15568
0:0:0:0:0:0:0:1 - - [07/Feb/2022:08:51:59 +0900] "GET /SimpleTwitter/js/jquery-3.6.0.min.js HTTP/1.1" 304 -
0:0:0:0:0:0:0:1 - - [07/Feb/2022:08:52:09 +0900] "POST /SimpleTwitter/comment HTTP/1.1" 302 -
0:0:0:0:0:0:0:1 - - [07/Feb/2022:08:52:09 +0900] "GET /SimpleTwitter/ HTTP/1.1" 200 16422
0:0:0:0:0:0:0:1 - - [07/Feb/2022:08:52:15 +0900] "POST /SimpleTwitter/comment HTTP/1.1" 302 -
0:0:0:0:0:0:0:1 - - [07/Feb/2022:08:52:15 +0900] "GET /SimpleTwitter/ HTTP/1.1" 200 17273
0:0:0:0:0:0:0:1 - - [07/Feb/2022:08:52:15 +0900] "GET /SimpleTwitter/js/jquery-3.6.0.min.js HTTP/1.1" 304 -
0:0:0:0:0:0:0:1 - - [07/Feb/2022:08:52:17 +0900] "GET /SimpleTwitter/logout HTTP/1.1" 302 -
0:0:0:0:0:0:0:1 - - [07/Feb/2022:08:52:17 +0900] "GET /SimpleTwitter/ HTTP/1.1" 200 11263
0:0:0:0:0:0:0:1 - - [07/Feb/2022:08:55:50 +0900] "GET /SimpleTwitter/ HTTP/1.1" 200 11263
0:0:0:0:0:0:0:1 - - [07/Feb/2022:08:55:50 +0900] "GET /SimpleTwitter/css/style.css HTTP/1.1" 304 -
0:0:0:0:0:0:0:1 - - [07/Feb/2022:08:55:50 +0900] "GET /SimpleTwitter/js/jquery-3.6.0.min.js HTTP/1.1" 200 90022
0:0:0:0:0:0:0:1 - - [07/Feb/2022:08:56:03 +0900] "GET /SimpleTwitter/?user_id=23 HTTP/1.1" 200 7141
0:0:0:0:0:0:0:1 - - [07/Feb/2022:08:56:03 +0900] "GET /SimpleTwitter/js/jquery-3.6.0.min.js HTTP/1.1" 304 -
0:0:0:0:0:0:0:1 - - [07/Feb/2022:08:56:47 +0900] "GET /SimpleTwitter/?user_id=23 HTTP/1.1" 200 7141
0:0:0:0:0:0:0:1 - - [07/Feb/2022:08:56:47 +0900] "GET /SimpleTwitter/css/style.css HTTP/1.1" 304 -
0:0:0:0:0:0:0:1 - - [07/Feb/2022:08:56:47 +0900] "GET /SimpleTwitter/js/jquery-3.6.0.min.js HTTP/1.1" 200 90048
0:0:0:0:0:0:0:1 - - [07/Feb/2022:08:57:56 +0900] "GET /SimpleTwitter/?user_id=23 HTTP/1.1" 200 7141
0:0:0:0:0:0:0:1 - - [07/Feb/2022:08:57:56 +0900] "GET /SimpleTwitter/css/style.css HTTP/1.1" 304 -
0:0:0:0:0:0:0:1 - - [07/Feb/2022:08:57:56 +0900] "GET /SimpleTwitter/js/jquery-3.6.0.min.js HTTP/1.1" 200 90040
0:0:0:0:0:0:0:1 - - [07/Feb/2022:09:16:43 +0900] "GET /SimpleTwitter/?user_id=23 HTTP/1.1" 200 7141
0:0:0:0:0:0:0:1 - - [07/Feb/2022:09:16:43 +0900] "GET /SimpleTwitter/css/style.css HTTP/1.1" 304 -
0:0:0:0:0:0:0:1 - - [07/Feb/2022:09:16:43 +0900] "GET /SimpleTwitter/js/jquery-3.6.0.min.js HTTP/1.1" 200 90040
0:0:0:0:0:0:0:1 - - [07/Feb/2022:09:18:34 +0900] "GET /SimpleTwitter/?user_id=23 HTTP/1.1" 200 7141
0:0:0:0:0:0:0:1 - - [07/Feb/2022:09:18:34 +0900] "GET /SimpleTwitter/css/style.css HTTP/1.1" 304 -
0:0:0:0:0:0:0:1 - - [07/Feb/2022:09:18:34 +0900] "GET /SimpleTwitter/js/jquery-3.6.0.min.js HTTP/1.1" 200 90022
0:0:0:0:0:0:0:1 - - [07/Feb/2022:09:18:54 +0900] "GET /SimpleTwitter/?user_id=23 HTTP/1.1" 200 7141
0:0:0:0:0:0:0:1 - - [07/Feb/2022:09:18:54 +0900] "GET /SimpleTwitter/css/style.css HTTP/1.1" 304 -
0:0:0:0:0:0:0:1 - - [07/Feb/2022:09:18:54 +0900] "GET /SimpleTwitter/js/jquery-3.6.0.min.js HTTP/1.1" 200 90036
0:0:0:0:0:0:0:1 - - [07/Feb/2022:09:19:07 +0900] "GET /SimpleTwitter/?user_id=23 HTTP/1.1" 200 7141
0:0:0:0:0:0:0:1 - - [07/Feb/2022:09:19:07 +0900] "GET /SimpleTwitter/css/style.css HTTP/1.1" 304 -
0:0:0:0:0:0:0:1 - - [07/Feb/2022:09:19:07 +0900] "GET /SimpleTwitter/js/jquery-3.6.0.min.js HTTP/1.1" 304 -
0:0:0:0:0:0:0:1 - - [07/Feb/2022:09:19:14 +0900] "GET /SimpleTwitter/login HTTP/1.1" 200 1001
0:0:0:0:0:0:0:1 - - [07/Feb/2022:09:19:21 +0900] "POST /SimpleTwitter/login HTTP/1.1" 302 -
0:0:0:0:0:0:0:1 - - [07/Feb/2022:09:19:21 +0900] "GET /SimpleTwitter/ HTTP/1.1" 200 17273
0:0:0:0:0:0:0:1 - - [07/Feb/2022:09:19:21 +0900] "GET /SimpleTwitter/js/jquery-3.6.0.min.js HTTP/1.1" 304 -
